pruebaConcepto.vcd
$date
  Wed May 16 15:12:45 2018
$end
$version
  GHDL v0
$end
$timescale
  1 fs
$end
$var reg 1 ! clk $end
$var reg 1 " reset $end
$var reg 1 # detectedbit $end
$var reg 8 $ bitinput[7:0] $end
$scope module detector $end
$var reg 1 % clk $end
$var reg 1 & reset $end
$var reg 8 ' bitinput[7:0] $end
$var reg 1 ( detectedbit $end
$comment state is not handled $end
$var reg 1 ) auxbit1 $end
$var reg 1 * auxbit $end
$scope module memcompare1 $end
$var reg 8 + charinput[7:0] $end
$var integer 32 , address $end
$var reg 1 - iscorrect $end
$var reg 8 . auxdata[7:0] $end
$scope module rom $end
$var integer 32 / address $end
$var reg 8 0 data[7:0] $end
$upscope $end
$scope module comparador $end
$var reg 8 1 charinputa[7:0] $end
$var reg 8 2 charinputb[7:0] $end
$var reg 1 3 bitoutput $end
$var reg 1 4 a1 $end
$var reg 1 5 a2 $end
$var reg 1 6 a3 $end
$var reg 1 7 a4 $end
$var reg 1 8 a5 $end
$var reg 1 9 a6 $end
$var reg 1 : a7 $end
$var reg 1 ; a8 $end
$upscope $end
$upscope $end
$scope module memcompare2 $end
$var reg 8 < charinput[7:0] $end
$var integer 32 = address $end
$var reg 1 > iscorrect $end
$var reg 8 ? auxdata[7:0] $end
$scope module rom $end
$var integer 32 @ address $end
$var reg 8 A data[7:0] $end
$upscope $end
$scope module comparador $end
$var reg 8 B charinputa[7:0] $end
$var reg 8 C charinputb[7:0] $end
$var reg 1 D bitoutput $end
$var reg 1 E a1 $end
$var reg 1 F a2 $end
$var reg 1 G a3 $end
$var reg 1 H a4 $end
$var reg 1 I a5 $end
$var reg 1 J a6 $end
$var reg 1 K a7 $end
$var reg 1 L a8 $end
$upscope $end
$upscope $end
$upscope $end
$enddefinitions $end
#0
0!
0"
U#
b00000000 $
0%
0&
b00000000 '
U(
0)
0*
b00000000 +
b1000 ,
0-
b01101001 .
b1000 /
b01101001 0
b00000000 1
b01101001 2
03
04
15
16
07
18
09
0:
1;
b00000000 <
b10010 =
0>
b01110011 ?
b10010 @
b01110011 A
b00000000 B
b01110011 C
0D
0E
0F
1G
1H
0I
0J
0K
1L
#5000000
1!
0#
1%
0(
#10000000
0!
b00010000 $
0%
b00010000 '
b00010000 +
b00010000 1
08
b00010000 <
b00010000 B
1I
#15000000
1!
1%
#20000000
0!
b01101001 $
0%
b01101001 '
1*
b01101001 +
1-
b01101001 1
13
14
17
18
19
1:
b01101001 <
b01101001 B
1E
0H
0I
1J
1K
#25000000
1!
1%
#30000000
0!
b01110011 $
0%
b01110011 '
1)
0*
b01110011 +
0-
b01110011 1
03
05
07
08
b01110011 <
1>
b01110011 B
1D
1F
1H
1I
#35000000
1!
1#
1%
1(
#40000000
0!
0%
#45000000
1!
0#
1%
0(
#50000000
0!
b00010001 $
0%
b00010001 '
0)
b00010001 +
b00010001 1
15
09
0:
b00010001 <
0>
b00010001 B
0D
0F
0J
0K
#55000000
1!
1%
#60000000
0!
b00010000 $
0%
b00010000 '
b00010000 +
b00010000 1
04
b00010000 <
b00010000 B
0E
#65000000
1!
1%
#70000000
0!
b01100001 $
0%
b01100001 '
b01100001 +
b01100001 1
14
18
19
1:
b01100001 <
b01100001 B
1E
0I
1J
1K
#75000000
1!
1%
#80000000
0!
b00000011 $
0%
b00000011 '
b00000011 +
b00000011 1
05
09
0:
b00000011 <
b00000011 B
1F
0J
0K
#85000000
1!
1%
#90000000
0!
b00000000 $
0%
b00000000 '
b00000000 +
b00000000 1
04
15
b00000000 <
b00000000 B
0E
0F
