s_entity.vcd
$date
  Wed Jun  6 19:15:13 2018
$end
$version
  GHDL v0
$end
$timescale
  1 fs
$end
$var reg 1 ! clk $end
$var reg 1 " detectedbit $end
$var reg 1 # reset $end
$var reg 8 $ bitinput[7:0] $end
$scope module detector $end
$var reg 1 % clk $end
$var reg 1 & reset $end
$var reg 8 ' bitinput[7:0] $end
$var reg 1 ( detectedbit $end
$comment estado_ini is not handled $end
$comment estado_sig is not handled $end
$var reg 1 ) chare $end
$var reg 1 * charn $end
$var reg 1 + chart $end
$var reg 1 , chari $end
$var reg 1 - chary $end
$var reg 1 . charspace $end
$var reg 1 / estadoant $end
$var reg 1 0 estadotrampa $end
$scope module memcomparee $end
$var reg 8 1 charinput[7:0] $end
$var integer 32 2 address $end
$var reg 1 3 iscorrect $end
$var reg 8 4 auxdata[7:0] $end
$scope module rom1 $end
$var integer 32 5 address $end
$var reg 8 6 data[7:0] $end
$upscope $end
$scope module comparador $end
$var reg 8 7 charinputa[7:0] $end
$var reg 8 8 charinputb[7:0] $end
$var reg 1 9 bitoutput $end
$var reg 1 : a1 $end
$var reg 1 ; a2 $end
$var reg 1 < a3 $end
$var reg 1 = a4 $end
$var reg 1 > a5 $end
$var reg 1 ? a6 $end
$var reg 1 @ a7 $end
$var reg 1 A a8 $end
$upscope $end
$upscope $end
$scope module memcomparen $end
$var reg 8 B charinput[7:0] $end
$var integer 32 C address $end
$var reg 1 D iscorrect $end
$var reg 8 E auxdata[7:0] $end
$scope module rom1 $end
$var integer 32 F address $end
$var reg 8 G data[7:0] $end
$upscope $end
$scope module comparador $end
$var reg 8 H charinputa[7:0] $end
$var reg 8 I charinputb[7:0] $end
$var reg 1 J bitoutput $end
$var reg 1 K a1 $end
$var reg 1 L a2 $end
$var reg 1 M a3 $end
$var reg 1 N a4 $end
$var reg 1 O a5 $end
$var reg 1 P a6 $end
$var reg 1 Q a7 $end
$var reg 1 R a8 $end
$upscope $end
$upscope $end
$scope module memcomparet $end
$var reg 8 S charinput[7:0] $end
$var integer 32 T address $end
$var reg 1 U iscorrect $end
$var reg 8 V auxdata[7:0] $end
$scope module rom1 $end
$var integer 32 W address $end
$var reg 8 X data[7:0] $end
$upscope $end
$scope module comparador $end
$var reg 8 Y charinputa[7:0] $end
$var reg 8 Z charinputb[7:0] $end
$var reg 1 [ bitoutput $end
$var reg 1 \ a1 $end
$var reg 1 ] a2 $end
$var reg 1 ^ a3 $end
$var reg 1 _ a4 $end
$var reg 1 ` a5 $end
$var reg 1 a a6 $end
$var reg 1 b a7 $end
$var reg 1 c a8 $end
$upscope $end
$upscope $end
$scope module memcomparei $end
$var reg 8 d charinput[7:0] $end
$var integer 32 e address $end
$var reg 1 f iscorrect $end
$var reg 8 g auxdata[7:0] $end
$scope module rom1 $end
$var integer 32 h address $end
$var reg 8 i data[7:0] $end
$upscope $end
$scope module comparador $end
$var reg 8 j charinputa[7:0] $end
$var reg 8 k charinputb[7:0] $end
$var reg 1 l bitoutput $end
$var reg 1 m a1 $end
$var reg 1 n a2 $end
$var reg 1 o a3 $end
$var reg 1 p a4 $end
$var reg 1 q a5 $end
$var reg 1 r a6 $end
$var reg 1 s a7 $end
$var reg 1 t a8 $end
$upscope $end
$upscope $end
$scope module memcomparey $end
$var reg 8 u charinput[7:0] $end
$var integer 32 v address $end
$var reg 1 w iscorrect $end
$var reg 8 x auxdata[7:0] $end
$scope module rom1 $end
$var integer 32 y address $end
$var reg 8 z data[7:0] $end
$upscope $end
$scope module comparador $end
$var reg 8 { charinputa[7:0] $end
$var reg 8 | charinputb[7:0] $end
$var reg 1 } bitoutput $end
$var reg 1 !" a1 $end
$var reg 1 "" a2 $end
$var reg 1 #" a3 $end
$var reg 1 $" a4 $end
$var reg 1 %" a5 $end
$var reg 1 &" a6 $end
$var reg 1 '" a7 $end
$var reg 1 (" a8 $end
$upscope $end
$upscope $end
$scope module memcomparespace $end
$var reg 8 )" charinput[7:0] $end
$var integer 32 *" address $end
$var reg 1 +" iscorrect $end
$var reg 8 ," auxdata[7:0] $end
$scope module rom1 $end
$var integer 32 -" address $end
$var reg 8 ." data[7:0] $end
$upscope $end
$scope module comparador $end
$var reg 8 /" charinputa[7:0] $end
$var reg 8 0" charinputb[7:0] $end
$var reg 1 1" bitoutput $end
$var reg 1 2" a1 $end
$var reg 1 3" a2 $end
$var reg 1 4" a3 $end
$var reg 1 5" a4 $end
$var reg 1 6" a5 $end
$var reg 1 7" a6 $end
$var reg 1 8" a7 $end
$var reg 1 9" a8 $end
$upscope $end
$upscope $end
$upscope $end
$enddefinitions $end
#0
0!
0"
0#
b01100101 $
0%
0&
b01100101 '
0(
1)
0*
0+
0,
0-
0.
0/
00
b01100101 1
b100 2
13
b01100101 4
b100 5
b01100101 6
b01100101 7
b01100101 8
19
1:
1;
1<
1=
1>
1?
1@
1A
b01100101 B
b1101 C
0D
b01101110 E
b1101 F
b01101110 G
b01100101 H
b01101110 I
0J
0K
0L
1M
0N
1O
1P
1Q
1R
b01100101 S
b10011 T
0U
b01110100 V
b10011 W
b01110100 X
b01100101 Y
b01110100 Z
0[
0\
1]
1^
1_
0`
1a
1b
1c
b01100101 d
b1000 e
0f
b01101001 g
b1000 h
b01101001 i
b01100101 j
b01101001 k
0l
1m
1n
0o
0p
1q
1r
1s
1t
b01100101 u
b11000 v
0w
b01111001 x
b11000 y
b01111001 z
b01100101 {
b01111001 |
0}
1!"
1""
0#"
0$"
0%"
1&"
1'"
1("
b01100101 )"
b11010 *"
0+"
b00100000 ,"
b11010 -"
b00100000 ."
b01100101 /"
b00100000 0"
01"
02"
13"
04"
15"
16"
17"
08"
19"
#5000000
1!
1%
#10000000
0!
b01101110 $
0%
b01101110 '
0)
1*
b01101110 1
03
b01101110 7
09
0:
0;
0=
b01101110 B
1D
b01101110 H
1J
1K
1L
1N
b01101110 S
b01101110 Y
1\
0]
0_
b01101110 d
b01101110 j
0m
0n
1p
b01101110 u
b01101110 {
0!"
0""
1$"
b01101110 )"
b01101110 /"
12"
03"
05"
#15000000
1!
1%
#20000000
0!
b01110100 $
0%
b01110100 '
0*
1+
b01110100 1
b01110100 7
1;
1=
0>
b01110100 B
0D
b01110100 H
0J
0L
0N
0O
b01110100 S
1U
b01110100 Y
1[
1]
1_
1`
b01110100 d
b01110100 j
1n
0p
0q
b01110100 u
b01110100 {
1""
0$"
1%"
b01110100 )"
b01110100 /"
13"
15"
06"
#25000000
1!
1%
#30000000
0!
b01101001 $
0%
b01101001 '
0+
1,
b01101001 1
b01101001 7
1:
0<
0=
1>
b01101001 B
b01101001 H
0K
0M
1N
1O
b01101001 S
0U
b01101001 Y
0[
0\
0^
0_
0`
b01101001 d
1f
b01101001 j
1l
1m
1o
1p
1q
b01101001 u
b01101001 {
1!"
1#"
1$"
0%"
b01101001 )"
b01101001 /"
02"
14"
05"
16"
#35000000
1!
1%
#40000000
0!
b01110100 $
0%
b01110100 '
1+
0,
b01110100 1
b01110100 7
0:
1<
1=
0>
b01110100 B
b01110100 H
1K
1M
0N
0O
b01110100 S
1U
b01110100 Y
1[
1\
1^
1_
1`
b01110100 d
0f
b01110100 j
0l
0m
0o
0p
0q
b01110100 u
b01110100 {
0!"
0#"
0$"
1%"
b01110100 )"
b01110100 /"
12"
04"
15"
06"
#45000000
1!
1%
#50000000
0!
b01111001 $
0%
b01111001 '
0+
1-
b01111001 1
b01111001 7
1:
0<
0=
b01111001 B
b01111001 H
0K
0M
1N
b01111001 S
0U
b01111001 Y
0[
0\
0^
0_
b01111001 d
b01111001 j
1m
1o
1p
b01111001 u
1w
b01111001 {
1}
1!"
1#"
1$"
b01111001 )"
b01111001 /"
02"
14"
05"
#55000000
1!
1%
#60000000
0!
1"
b00100000 $
0%
b00100000 '
1(
0-
1.
1/
b00100000 1
b00100000 7
0:
1=
1>
0@
b00100000 B
b00100000 H
1K
0N
1O
0Q
b00100000 S
b00100000 Y
1\
1_
0`
0b
b00100000 d
b00100000 j
0m
0p
1q
0s
b00100000 u
0w
b00100000 {
0}
0!"
0$"
0%"
0'"
b00100000 )"
1+"
b00100000 /"
11"
12"
15"
16"
18"
#65000000
1!
1%
#70000000
0!
0"
b01110100 $
0%
b01110100 '
0(
1+
0.
0/
b01110100 1
b01110100 7
1<
0>
1@
b01110100 B
b01110100 H
1M
0O
1Q
b01110100 S
1U
b01110100 Y
1[
1^
1`
1b
b01110100 d
b01110100 j
0o
0q
1s
b01110100 u
b01110100 {
0#"
1%"
1'"
b01110100 )"
0+"
b01110100 /"
01"
04"
06"
08"
#75000000
1!
1%
#80000000
0!
b01111001 $
0%
b01111001 '
0+
1-
b01111001 1
b01111001 7
1:
0<
0=
b01111001 B
b01111001 H
0K
0M
1N
b01111001 S
0U
b01111001 Y
0[
0\
0^
0_
b01111001 d
b01111001 j
1m
1o
1p
b01111001 u
1w
b01111001 {
1}
1!"
1#"
1$"
b01111001 )"
b01111001 /"
02"
14"
05"
#85000000
1!
1%
#90000000
0!
b01110100 $
0%
b01110100 '
1+
0-
b01110100 1
b01110100 7
0:
1<
1=
b01110100 B
b01110100 H
1K
1M
0N
b01110100 S
1U
b01110100 Y
1[
1\
1^
1_
b01110100 d
b01110100 j
0m
0o
0p
b01110100 u
0w
b01110100 {
0}
0!"
0#"
0$"
b01110100 )"
b01110100 /"
12"
04"
15"
#95000000
1!
1%
#100000000
0!
b01111001 $
0%
b01111001 '
0+
1-
b01111001 1
b01111001 7
1:
0<
0=
b01111001 B
b01111001 H
0K
0M
1N
b01111001 S
0U
b01111001 Y
0[
0\
0^
0_
b01111001 d
b01111001 j
1m
1o
1p
b01111001 u
1w
b01111001 {
1}
1!"
1#"
1$"
b01111001 )"
b01111001 /"
02"
14"
05"
#105000000
1!
1%
#110000000
0!
b01100101 $
0%
b01100101 '
1)
0-
b01100101 1
13
b01100101 7
19
1<
1=
1>
b01100101 B
b01100101 H
1M
0N
1O
b01100101 S
b01100101 Y
1^
1_
0`
b01100101 d
b01100101 j
0o
0p
1q
b01100101 u
0w
b01100101 {
0}
0#"
0$"
0%"
b01100101 )"
b01100101 /"
04"
15"
16"
#115000000
1!
1%
#120000000
0!
b01101110 $
0%
b01101110 '
0)
1*
b01101110 1
03
b01101110 7
09
0:
0;
0=
b01101110 B
1D
b01101110 H
1J
1K
1L
1N
b01101110 S
b01101110 Y
1\
0]
0_
b01101110 d
b01101110 j
0m
0n
1p
b01101110 u
b01101110 {
0!"
0""
1$"
b01101110 )"
b01101110 /"
12"
03"
05"
#125000000
1!
1%
#130000000
0!
b01110100 $
0%
b01110100 '
0*
1+
b01110100 1
b01110100 7
1;
1=
0>
b01110100 B
0D
b01110100 H
0J
0L
0N
0O
b01110100 S
1U
b01110100 Y
1[
1]
1_
1`
b01110100 d
b01110100 j
1n
0p
0q
b01110100 u
b01110100 {
1""
0$"
1%"
b01110100 )"
b01110100 /"
13"
15"
06"
#135000000
1!
1%
#140000000
0!
b01101001 $
0%
b01101001 '
0+
1,
b01101001 1
b01101001 7
1:
0<
0=
1>
b01101001 B
b01101001 H
0K
0M
1N
1O
b01101001 S
0U
b01101001 Y
0[
0\
0^
0_
0`
b01101001 d
1f
b01101001 j
1l
1m
1o
1p
1q
b01101001 u
b01101001 {
1!"
1#"
1$"
0%"
b01101001 )"
b01101001 /"
02"
14"
05"
16"
#145000000
1!
1%
#150000000
0!
b01110100 $
0%
b01110100 '
1+
0,
b01110100 1
b01110100 7
0:
1<
1=
0>
b01110100 B
b01110100 H
1K
1M
0N
0O
b01110100 S
1U
b01110100 Y
1[
1\
1^
1_
1`
b01110100 d
0f
b01110100 j
0l
0m
0o
0p
0q
b01110100 u
b01110100 {
0!"
0#"
0$"
1%"
b01110100 )"
b01110100 /"
12"
04"
15"
06"
#155000000
1!
1%
#160000000
0!
b01111001 $
0%
b01111001 '
0+
1-
b01111001 1
b01111001 7
1:
0<
0=
b01111001 B
b01111001 H
0K
0M
1N
b01111001 S
0U
b01111001 Y
0[
0\
0^
0_
b01111001 d
b01111001 j
1m
1o
1p
b01111001 u
1w
b01111001 {
1}
1!"
1#"
1$"
b01111001 )"
b01111001 /"
02"
14"
05"
#165000000
1!
1%
#170000000
0!
b00100000 $
0%
b00100000 '
0-
1.
b00100000 1
b00100000 7
0:
1=
1>
0@
b00100000 B
b00100000 H
1K
0N
1O
0Q
b00100000 S
b00100000 Y
1\
1_
0`
0b
b00100000 d
b00100000 j
0m
0p
1q
0s
b00100000 u
0w
b00100000 {
0}
0!"
0$"
0%"
0'"
b00100000 )"
1+"
b00100000 /"
11"
12"
15"
16"
18"
#175000000
1!
1%
#180000000
0!
b01100101 $
0%
b01100101 '
1)
0.
b01100101 1
13
b01100101 7
19
1:
1<
1@
b01100101 B
b01100101 H
0K
1M
1Q
b01100101 S
b01100101 Y
0\
1^
1b
b01100101 d
b01100101 j
1m
0o
1s
b01100101 u
b01100101 {
1!"
0#"
1'"
b01100101 )"
0+"
b01100101 /"
01"
02"
04"
08"
#185000000
1!
1%
#190000000
0!
b01101110 $
0%
b01101110 '
0)
1*
b01101110 1
03
b01101110 7
09
0:
0;
0=
b01101110 B
1D
b01101110 H
1J
1K
1L
1N
b01101110 S
b01101110 Y
1\
0]
0_
b01101110 d
b01101110 j
0m
0n
1p
b01101110 u
b01101110 {
0!"
0""
1$"
b01101110 )"
b01101110 /"
12"
03"
05"
#195000000
1!
1%
#200000000
0!
b01110100 $
0%
b01110100 '
0*
1+
b01110100 1
b01110100 7
1;
1=
0>
b01110100 B
0D
b01110100 H
0J
0L
0N
0O
b01110100 S
1U
b01110100 Y
1[
1]
1_
1`
b01110100 d
b01110100 j
1n
0p
0q
b01110100 u
b01110100 {
1""
0$"
1%"
b01110100 )"
b01110100 /"
13"
15"
06"
#205000000
1!
1%
#210000000
0!
b01101001 $
0%
b01101001 '
0+
1,
b01101001 1
b01101001 7
1:
0<
0=
1>
b01101001 B
b01101001 H
0K
0M
1N
1O
b01101001 S
0U
b01101001 Y
0[
0\
0^
0_
0`
b01101001 d
1f
b01101001 j
1l
1m
1o
1p
1q
b01101001 u
b01101001 {
1!"
1#"
1$"
0%"
b01101001 )"
b01101001 /"
02"
14"
05"
16"
#215000000
1!
1%
#220000000
0!
b01110100 $
0%
b01110100 '
1+
0,
b01110100 1
b01110100 7
0:
1<
1=
0>
b01110100 B
b01110100 H
1K
1M
0N
0O
b01110100 S
1U
b01110100 Y
1[
1\
1^
1_
1`
b01110100 d
0f
b01110100 j
0l
0m
0o
0p
0q
b01110100 u
b01110100 {
0!"
0#"
0$"
1%"
b01110100 )"
b01110100 /"
12"
04"
15"
06"
#225000000
1!
1%
#230000000
0!
b01111001 $
0%
b01111001 '
0+
1-
b01111001 1
b01111001 7
1:
0<
0=
b01111001 B
b01111001 H
0K
0M
1N
b01111001 S
0U
b01111001 Y
0[
0\
0^
0_
b01111001 d
b01111001 j
1m
1o
1p
b01111001 u
1w
b01111001 {
1}
1!"
1#"
1$"
b01111001 )"
b01111001 /"
02"
14"
05"
#235000000
1!
1%
#240000000
0!
1"
b00100000 $
0%
b00100000 '
1(
0-
1.
1/
b00100000 1
b00100000 7
0:
1=
1>
0@
b00100000 B
b00100000 H
1K
0N
1O
0Q
b00100000 S
b00100000 Y
1\
1_
0`
0b
b00100000 d
b00100000 j
0m
0p
1q
0s
b00100000 u
0w
b00100000 {
0}
0!"
0$"
0%"
0'"
b00100000 )"
1+"
b00100000 /"
11"
12"
15"
16"
18"
