s_end.vcd
$date
  Wed Jun  6 19:09:08 2018
$end
$version
  GHDL v0
$end
$timescale
  1 fs
$end
$var reg 1 ! clk $end
$var reg 1 " detectedbit $end
$var reg 1 # reset $end
$var reg 8 $ bitinput[7:0] $end
$scope module detector $end
$var reg 1 % clk $end
$var reg 1 & reset $end
$var reg 8 ' bitinput[7:0] $end
$var reg 1 ( detectedbit $end
$comment estado_ini is not handled $end
$comment estado_sig is not handled $end
$var reg 1 ) chare $end
$var reg 1 * charn $end
$var reg 1 + chard $end
$var reg 1 , charspace $end
$var reg 1 - estadoant $end
$scope module memcomparee $end
$var reg 8 . charinput[7:0] $end
$var integer 32 / address $end
$var reg 1 0 iscorrect $end
$var reg 8 1 auxdata[7:0] $end
$scope module rom1 $end
$var integer 32 2 address $end
$var reg 8 3 data[7:0] $end
$upscope $end
$scope module comparador $end
$var reg 8 4 charinputa[7:0] $end
$var reg 8 5 charinputb[7:0] $end
$var reg 1 6 bitoutput $end
$var reg 1 7 a1 $end
$var reg 1 8 a2 $end
$var reg 1 9 a3 $end
$var reg 1 : a4 $end
$var reg 1 ; a5 $end
$var reg 1 < a6 $end
$var reg 1 = a7 $end
$var reg 1 > a8 $end
$upscope $end
$upscope $end
$scope module memcomparen $end
$var reg 8 ? charinput[7:0] $end
$var integer 32 @ address $end
$var reg 1 A iscorrect $end
$var reg 8 B auxdata[7:0] $end
$scope module rom1 $end
$var integer 32 C address $end
$var reg 8 D data[7:0] $end
$upscope $end
$scope module comparador $end
$var reg 8 E charinputa[7:0] $end
$var reg 8 F charinputb[7:0] $end
$var reg 1 G bitoutput $end
$var reg 1 H a1 $end
$var reg 1 I a2 $end
$var reg 1 J a3 $end
$var reg 1 K a4 $end
$var reg 1 L a5 $end
$var reg 1 M a6 $end
$var reg 1 N a7 $end
$var reg 1 O a8 $end
$upscope $end
$upscope $end
$scope module memcompared $end
$var reg 8 P charinput[7:0] $end
$var integer 32 Q address $end
$var reg 1 R iscorrect $end
$var reg 8 S auxdata[7:0] $end
$scope module rom1 $end
$var integer 32 T address $end
$var reg 8 U data[7:0] $end
$upscope $end
$scope module comparador $end
$var reg 8 V charinputa[7:0] $end
$var reg 8 W charinputb[7:0] $end
$var reg 1 X bitoutput $end
$var reg 1 Y a1 $end
$var reg 1 Z a2 $end
$var reg 1 [ a3 $end
$var reg 1 \ a4 $end
$var reg 1 ] a5 $end
$var reg 1 ^ a6 $end
$var reg 1 _ a7 $end
$var reg 1 ` a8 $end
$upscope $end
$upscope $end
$scope module memcomparespace $end
$var reg 8 a charinput[7:0] $end
$var integer 32 b address $end
$var reg 1 c iscorrect $end
$var reg 8 d auxdata[7:0] $end
$scope module rom1 $end
$var integer 32 e address $end
$var reg 8 f data[7:0] $end
$upscope $end
$scope module comparador $end
$var reg 8 g charinputa[7:0] $end
$var reg 8 h charinputb[7:0] $end
$var reg 1 i bitoutput $end
$var reg 1 j a1 $end
$var reg 1 k a2 $end
$var reg 1 l a3 $end
$var reg 1 m a4 $end
$var reg 1 n a5 $end
$var reg 1 o a6 $end
$var reg 1 p a7 $end
$var reg 1 q a8 $end
$upscope $end
$upscope $end
$upscope $end
$enddefinitions $end
#0
0!
0"
0#
b01100101 $
0%
0&
b01100101 '
0(
1)
0*
0+
0,
0-
b01100101 .
b100 /
10
b01100101 1
b100 2
b01100101 3
b01100101 4
b01100101 5
16
17
18
19
1:
1;
1<
1=
1>
b01100101 ?
b1101 @
0A
b01101110 B
b1101 C
b01101110 D
b01100101 E
b01101110 F
0G
0H
0I
1J
0K
1L
1M
1N
1O
b01100101 P
b11 Q
0R
b01100100 S
b11 T
b01100100 U
b01100101 V
b01100100 W
0X
0Y
1Z
1[
1\
1]
1^
1_
1`
b01100101 a
b11010 b
0c
b00100000 d
b11010 e
b00100000 f
b01100101 g
b00100000 h
0i
0j
1k
0l
1m
1n
1o
0p
1q
#5000000
1!
1%
#10000000
0!
b01101110 $
0%
b01101110 '
0)
1*
b01101110 .
00
b01101110 4
06
07
08
0:
b01101110 ?
1A
b01101110 E
1G
1H
1I
1K
b01101110 P
b01101110 V
1Y
0Z
0\
b01101110 a
b01101110 g
1j
0k
0m
#15000000
1!
1%
#20000000
0!
b01100100 $
0%
b01100100 '
0*
1+
b01100100 .
b01100100 4
18
1:
b01100100 ?
0A
b01100100 E
0G
0I
0K
b01100100 P
1R
b01100100 V
1X
1Z
1\
b01100100 a
b01100100 g
1k
1m
#25000000
1!
1%
#30000000
0!
1"
b00100000 $
0%
b00100000 '
1(
0+
1,
1-
b00100000 .
b00100000 4
09
0=
b00100000 ?
b00100000 E
0J
0N
b00100000 P
0R
b00100000 V
0X
0[
0_
b00100000 a
1c
b00100000 g
1i
1l
1p
#35000000
1!
1%
#40000000
0!
0"
b01101110 $
0%
b01101110 '
0(
1*
0,
0-
b01101110 .
b01101110 4
08
19
0:
1=
b01101110 ?
1A
b01101110 E
1G
1I
1J
1K
1N
b01101110 P
b01101110 V
0Z
1[
0\
1_
b01101110 a
0c
b01101110 g
0i
0k
0l
0m
0p
#45000000
1!
1%
#50000000
0!
b01100101 $
0%
b01100101 '
1)
0*
b01100101 .
10
b01100101 4
16
17
18
1:
b01100101 ?
0A
b01100101 E
0G
0H
0I
0K
b01100101 P
b01100101 V
0Y
1Z
1\
b01100101 a
b01100101 g
0j
1k
1m
#55000000
1!
1%
#60000000
0!
b01101110 $
0%
b01101110 '
0)
1*
b01101110 .
00
b01101110 4
06
07
08
0:
b01101110 ?
1A
b01101110 E
1G
1H
1I
1K
b01101110 P
b01101110 V
1Y
0Z
0\
b01101110 a
b01101110 g
1j
0k
0m
#65000000
1!
1%
#70000000
0!
b01100100 $
0%
b01100100 '
0*
1+
b01100100 .
b01100100 4
18
1:
b01100100 ?
0A
b01100100 E
0G
0I
0K
b01100100 P
1R
b01100100 V
1X
1Z
1\
b01100100 a
b01100100 g
1k
1m
#75000000
1!
1%
#80000000
0!
b00100000 $
0%
b00100000 '
0+
1,
b00100000 .
b00100000 4
09
0=
b00100000 ?
b00100000 E
0J
0N
b00100000 P
0R
b00100000 V
0X
0[
0_
b00100000 a
1c
b00100000 g
1i
1l
1p
#85000000
1!
1%
#90000000
0!
b01111010 $
0%
b01111010 '
0,
b01111010 .
b01111010 4
08
0:
0;
1=
b01111010 ?
b01111010 E
1I
1K
0L
1N
b01111010 P
b01111010 V
0Z
0\
0]
1_
b01111010 a
0c
b01111010 g
0i
0k
0m
0n
0p
#95000000
1!
1%
#100000000
0!
b01101110 $
0%
b01101110 '
1*
b01101110 .
b01101110 4
19
1;
b01101110 ?
1A
b01101110 E
1G
1J
1L
b01101110 P
b01101110 V
1[
1]
b01101110 a
b01101110 g
0l
1n
#105000000
1!
1%
#110000000
0!
b01100101 $
0%
b01100101 '
1)
0*
b01100101 .
10
b01100101 4
16
17
18
1:
b01100101 ?
0A
b01100101 E
0G
0H
0I
0K
b01100101 P
b01100101 V
0Y
1Z
1\
b01100101 a
b01100101 g
0j
1k
1m
#115000000
1!
1%
#120000000
0!
b01101110 $
0%
b01101110 '
0)
1*
b01101110 .
00
b01101110 4
06
07
08
0:
b01101110 ?
1A
b01101110 E
1G
1H
1I
1K
b01101110 P
b01101110 V
1Y
0Z
0\
b01101110 a
b01101110 g
1j
0k
0m
#125000000
1!
1%
#130000000
0!
b01100100 $
0%
b01100100 '
0*
1+
b01100100 .
b01100100 4
18
1:
b01100100 ?
0A
b01100100 E
0G
0I
0K
b01100100 P
1R
b01100100 V
1X
1Z
1\
b01100100 a
b01100100 g
1k
1m
#135000000
1!
1%
#140000000
0!
b00100000 $
0%
b00100000 '
0+
1,
b00100000 .
b00100000 4
09
0=
b00100000 ?
b00100000 E
0J
0N
b00100000 P
0R
b00100000 V
0X
0[
0_
b00100000 a
1c
b00100000 g
1i
1l
1p
#145000000
1!
1%
#150000000
0!
b01100101 $
0%
b01100101 '
1)
0,
b01100101 .
10
b01100101 4
16
17
19
1=
b01100101 ?
b01100101 E
0H
1J
1N
b01100101 P
b01100101 V
0Y
1[
1_
b01100101 a
0c
b01100101 g
0i
0j
0l
0p
#155000000
1!
1%
#160000000
0!
b01101110 $
0%
b01101110 '
0)
1*
b01101110 .
00
b01101110 4
06
07
08
0:
b01101110 ?
1A
b01101110 E
1G
1H
1I
1K
b01101110 P
b01101110 V
1Y
0Z
0\
b01101110 a
b01101110 g
1j
0k
0m
#165000000
1!
1%
#170000000
0!
b01100100 $
0%
b01100100 '
0*
1+
b01100100 .
b01100100 4
18
1:
b01100100 ?
0A
b01100100 E
0G
0I
0K
b01100100 P
1R
b01100100 V
1X
1Z
1\
b01100100 a
b01100100 g
1k
1m
#175000000
1!
1%
#180000000
0!
1"
b00100000 $
0%
b00100000 '
1(
0+
1,
1-
b00100000 .
b00100000 4
09
0=
b00100000 ?
b00100000 E
0J
0N
b00100000 P
0R
b00100000 V
0X
0[
0_
b00100000 a
1c
b00100000 g
1i
1l
1p
