s_LogicDetector.vcd
$date
  Wed Jun  6 16:56:29 2018
$end
$version
  GHDL v0
$end
$timescale
  1 fs
$end
$var reg 1 ! clk $end
$var reg 1 " detectedbit $end
$var reg 1 # reset $end
$var reg 8 $ bitinput[7:0] $end
$scope module detector $end
$var reg 1 % clk $end
$var reg 1 & reset $end
$var reg 8 ' bitinput[7:0] $end
$var reg 1 ( detectedbit $end
$comment estado_ini is not handled $end
$comment estado_sig is not handled $end
$var reg 1 ) chara $end
$var reg 1 * charn $end
$var reg 1 + chard $end
$var reg 1 , charo $end
$var reg 1 - charr $end
$var reg 1 . charx $end
$var reg 1 / charspace $end
$var reg 1 0 estadoant $end
$scope module memcomparea $end
$var reg 8 1 charinput[7:0] $end
$var integer 32 2 address $end
$var reg 1 3 iscorrect $end
$var reg 8 4 auxdata[7:0] $end
$scope module rom1 $end
$var integer 32 5 address $end
$var reg 8 6 data[7:0] $end
$upscope $end
$scope module comparador $end
$var reg 8 7 charinputa[7:0] $end
$var reg 8 8 charinputb[7:0] $end
$var reg 1 9 bitoutput $end
$var reg 1 : a1 $end
$var reg 1 ; a2 $end
$var reg 1 < a3 $end
$var reg 1 = a4 $end
$var reg 1 > a5 $end
$var reg 1 ? a6 $end
$var reg 1 @ a7 $end
$var reg 1 A a8 $end
$upscope $end
$upscope $end
$scope module memcomparen $end
$var reg 8 B charinput[7:0] $end
$var integer 32 C address $end
$var reg 1 D iscorrect $end
$var reg 8 E auxdata[7:0] $end
$scope module rom1 $end
$var integer 32 F address $end
$var reg 8 G data[7:0] $end
$upscope $end
$scope module comparador $end
$var reg 8 H charinputa[7:0] $end
$var reg 8 I charinputb[7:0] $end
$var reg 1 J bitoutput $end
$var reg 1 K a1 $end
$var reg 1 L a2 $end
$var reg 1 M a3 $end
$var reg 1 N a4 $end
$var reg 1 O a5 $end
$var reg 1 P a6 $end
$var reg 1 Q a7 $end
$var reg 1 R a8 $end
$upscope $end
$upscope $end
$scope module memcompared $end
$var reg 8 S charinput[7:0] $end
$var integer 32 T address $end
$var reg 1 U iscorrect $end
$var reg 8 V auxdata[7:0] $end
$scope module rom1 $end
$var integer 32 W address $end
$var reg 8 X data[7:0] $end
$upscope $end
$scope module comparador $end
$var reg 8 Y charinputa[7:0] $end
$var reg 8 Z charinputb[7:0] $end
$var reg 1 [ bitoutput $end
$var reg 1 \ a1 $end
$var reg 1 ] a2 $end
$var reg 1 ^ a3 $end
$var reg 1 _ a4 $end
$var reg 1 ` a5 $end
$var reg 1 a a6 $end
$var reg 1 b a7 $end
$var reg 1 c a8 $end
$upscope $end
$upscope $end
$scope module memcompareo $end
$var reg 8 d charinput[7:0] $end
$var integer 32 e address $end
$var reg 1 f iscorrect $end
$var reg 8 g auxdata[7:0] $end
$scope module rom1 $end
$var integer 32 h address $end
$var reg 8 i data[7:0] $end
$upscope $end
$scope module comparador $end
$var reg 8 j charinputa[7:0] $end
$var reg 8 k charinputb[7:0] $end
$var reg 1 l bitoutput $end
$var reg 1 m a1 $end
$var reg 1 n a2 $end
$var reg 1 o a3 $end
$var reg 1 p a4 $end
$var reg 1 q a5 $end
$var reg 1 r a6 $end
$var reg 1 s a7 $end
$var reg 1 t a8 $end
$upscope $end
$upscope $end
$scope module memcomparer $end
$var reg 8 u charinput[7:0] $end
$var integer 32 v address $end
$var reg 1 w iscorrect $end
$var reg 8 x auxdata[7:0] $end
$scope module rom1 $end
$var integer 32 y address $end
$var reg 8 z data[7:0] $end
$upscope $end
$scope module comparador $end
$var reg 8 { charinputa[7:0] $end
$var reg 8 | charinputb[7:0] $end
$var reg 1 } bitoutput $end
$var reg 1 !" a1 $end
$var reg 1 "" a2 $end
$var reg 1 #" a3 $end
$var reg 1 $" a4 $end
$var reg 1 %" a5 $end
$var reg 1 &" a6 $end
$var reg 1 '" a7 $end
$var reg 1 (" a8 $end
$upscope $end
$upscope $end
$scope module memcomparex $end
$var reg 8 )" charinput[7:0] $end
$var integer 32 *" address $end
$var reg 1 +" iscorrect $end
$var reg 8 ," auxdata[7:0] $end
$scope module rom1 $end
$var integer 32 -" address $end
$var reg 8 ." data[7:0] $end
$upscope $end
$scope module comparador $end
$var reg 8 /" charinputa[7:0] $end
$var reg 8 0" charinputb[7:0] $end
$var reg 1 1" bitoutput $end
$var reg 1 2" a1 $end
$var reg 1 3" a2 $end
$var reg 1 4" a3 $end
$var reg 1 5" a4 $end
$var reg 1 6" a5 $end
$var reg 1 7" a6 $end
$var reg 1 8" a7 $end
$var reg 1 9" a8 $end
$upscope $end
$upscope $end
$scope module memcomparespace $end
$var reg 8 :" charinput[7:0] $end
$var integer 32 ;" address $end
$var reg 1 <" iscorrect $end
$var reg 8 =" auxdata[7:0] $end
$scope module rom1 $end
$var integer 32 >" address $end
$var reg 8 ?" data[7:0] $end
$upscope $end
$scope module comparador $end
$var reg 8 @" charinputa[7:0] $end
$var reg 8 A" charinputb[7:0] $end
$var reg 1 B" bitoutput $end
$var reg 1 C" a1 $end
$var reg 1 D" a2 $end
$var reg 1 E" a3 $end
$var reg 1 F" a4 $end
$var reg 1 G" a5 $end
$var reg 1 H" a6 $end
$var reg 1 I" a7 $end
$var reg 1 J" a8 $end
$upscope $end
$upscope $end
$upscope $end
$enddefinitions $end
#0
0!
0"
0#
b01100001 $
0%
0&
b01100001 '
0(
1)
0*
0+
0,
0-
0.
0/
00
b01100001 1
b0 2
13
b01100001 4
b0 5
b01100001 6
b01100001 7
b01100001 8
19
1:
1;
1<
1=
1>
1?
1@
1A
b01100001 B
b1101 C
0D
b01101110 E
b1101 F
b01101110 G
b01100001 H
b01101110 I
0J
0K
0L
0M
0N
1O
1P
1Q
1R
b01100001 S
b11 T
0U
b01100100 V
b11 W
b01100100 X
b01100001 Y
b01100100 Z
0[
0\
1]
0^
1_
1`
1a
1b
1c
b01100001 d
b1110 e
0f
b01101111 g
b1110 h
b01101111 i
b01100001 j
b01101111 k
0l
1m
0n
0o
0p
1q
1r
1s
1t
b01100001 u
b10001 v
0w
b01110010 x
b10001 y
b01110010 z
b01100001 {
b01110010 |
0}
0!"
0""
1#"
1$"
0%"
1&"
1'"
1("
b01100001 )"
b10111 *"
0+"
b01111000 ,"
b10111 -"
b01111000 ."
b01100001 /"
b01111000 0"
01"
02"
13"
14"
05"
06"
17"
18"
19"
b01100001 :"
b11010 ;"
0<"
b00100000 ="
b11010 >"
b00100000 ?"
b01100001 @"
b00100000 A"
0B"
0C"
1D"
1E"
1F"
1G"
1H"
0I"
1J"
#5000000
1!
1%
#10000000
0!
b01101110 $
0%
b01101110 '
0)
1*
b01101110 1
03
b01101110 7
09
0:
0;
0<
0=
b01101110 B
1D
b01101110 H
1J
1K
1L
1M
1N
b01101110 S
b01101110 Y
1\
0]
1^
0_
b01101110 d
b01101110 j
0m
1n
1o
1p
b01101110 u
b01101110 {
1!"
1""
0#"
0$"
b01101110 )"
b01101110 /"
12"
03"
04"
15"
b01101110 :"
b01101110 @"
1C"
0D"
0E"
0F"
#15000000
1!
1%
#20000000
0!
b01100100 $
0%
b01100100 '
0*
1+
b01100100 1
b01100100 7
1;
1=
b01100100 B
0D
b01100100 H
0J
0L
0N
b01100100 S
1U
b01100100 Y
1[
1]
1_
b01100100 d
b01100100 j
0n
0p
b01100100 u
b01100100 {
0""
1$"
b01100100 )"
b01100100 /"
13"
05"
b01100100 :"
b01100100 @"
1D"
1F"
#25000000
1!
1%
#30000000
0!
1"
b00100000 $
0%
b00100000 '
1(
0+
1/
10
b00100000 1
b00100000 7
1<
0@
b00100000 B
b00100000 H
0M
0Q
b00100000 S
0U
b00100000 Y
0[
0^
0b
b00100000 d
b00100000 j
0o
0s
b00100000 u
b00100000 {
1#"
0'"
b00100000 )"
b00100000 /"
14"
08"
b00100000 :"
1<"
b00100000 @"
1B"
1E"
1I"
#35000000
1!
1%
#40000000
0!
0"
b01110000 $
0%
b01110000 '
0(
0/
00
b01110000 1
b01110000 7
0>
1@
b01110000 B
b01110000 H
0O
1Q
b01110000 S
b01110000 Y
0`
1b
b01110000 d
b01110000 j
0q
1s
b01110000 u
b01110000 {
1%"
1'"
b01110000 )"
b01110000 /"
16"
18"
b01110000 :"
0<"
b01110000 @"
0B"
0G"
0I"
#45000000
1!
1%
#50000000
0!
b01101111 $
0%
b01101111 '
1,
b01101111 1
b01101111 7
1:
0;
0<
0=
1>
b01101111 B
b01101111 H
0K
1L
1M
1N
1O
b01101111 S
b01101111 Y
0\
0]
1^
0_
1`
b01101111 d
1f
b01101111 j
1l
1m
1n
1o
1p
1q
b01101111 u
b01101111 {
0!"
1""
0#"
0$"
0%"
b01101111 )"
b01101111 /"
02"
03"
04"
15"
06"
b01101111 :"
b01101111 @"
0C"
0D"
0E"
0F"
1G"
#55000000
1!
1%
#60000000
0!
b01110010 $
0%
b01110010 '
0,
1-
b01110010 1
b01110010 7
0:
1<
1=
0>
b01110010 B
b01110010 H
1K
0M
0N
0O
b01110010 S
b01110010 Y
1\
0^
1_
0`
b01110010 d
0f
b01110010 j
0l
0m
0o
0p
0q
b01110010 u
1w
b01110010 {
1}
1!"
1#"
1$"
1%"
b01110010 )"
b01110010 /"
12"
14"
05"
16"
b01110010 :"
b01110010 @"
1C"
1E"
1F"
0G"
#65000000
1!
1%
#70000000
0!
1"
b00100000 $
0%
b00100000 '
1(
0-
1/
10
b00100000 1
b00100000 7
1;
1>
0@
b00100000 B
b00100000 H
0L
1O
0Q
b00100000 S
b00100000 Y
1]
1`
0b
b00100000 d
b00100000 j
0n
1q
0s
b00100000 u
0w
b00100000 {
0}
0""
0%"
0'"
b00100000 )"
b00100000 /"
13"
06"
08"
b00100000 :"
1<"
b00100000 @"
1B"
1D"
1G"
1I"
#75000000
1!
1%
#80000000
0!
0"
b01110000 $
0%
b01110000 '
0(
0/
00
b01110000 1
b01110000 7
0>
1@
b01110000 B
b01110000 H
0O
1Q
b01110000 S
b01110000 Y
0`
1b
b01110000 d
b01110000 j
0q
1s
b01110000 u
b01110000 {
1%"
1'"
b01110000 )"
b01110000 /"
16"
18"
b01110000 :"
0<"
b01110000 @"
0B"
0G"
0I"
#85000000
1!
1%
#90000000
0!
b01111000 $
0%
b01111000 '
1.
b01111000 1
b01111000 7
0=
b01111000 B
b01111000 H
1N
b01111000 S
b01111000 Y
0_
b01111000 d
b01111000 j
1p
b01111000 u
b01111000 {
0$"
b01111000 )"
1+"
b01111000 /"
11"
15"
b01111000 :"
b01111000 @"
0F"
#95000000
1!
1%
#100000000
0!
b01101111 $
0%
b01101111 '
1,
0.
b01101111 1
b01101111 7
1:
0;
0<
1>
b01101111 B
b01101111 H
0K
1L
1M
1O
b01101111 S
b01101111 Y
0\
0]
1^
1`
b01101111 d
1f
b01101111 j
1l
1m
1n
1o
1q
b01101111 u
b01101111 {
0!"
1""
0#"
0%"
b01101111 )"
0+"
b01101111 /"
01"
02"
03"
04"
06"
b01101111 :"
b01101111 @"
0C"
0D"
0E"
1G"
#105000000
1!
1%
#110000000
0!
b01110010 $
0%
b01110010 '
0,
1-
b01110010 1
b01110010 7
0:
1<
1=
0>
b01110010 B
b01110010 H
1K
0M
0N
0O
b01110010 S
b01110010 Y
1\
0^
1_
0`
b01110010 d
0f
b01110010 j
0l
0m
0o
0p
0q
b01110010 u
1w
b01110010 {
1}
1!"
1#"
1$"
1%"
b01110010 )"
b01110010 /"
12"
14"
05"
16"
b01110010 :"
b01110010 @"
1C"
1E"
1F"
0G"
#115000000
1!
1%
#120000000
0!
1"
b00100000 $
0%
b00100000 '
1(
0-
1/
10
b00100000 1
b00100000 7
1;
1>
0@
b00100000 B
b00100000 H
0L
1O
0Q
b00100000 S
b00100000 Y
1]
1`
0b
b00100000 d
b00100000 j
0n
1q
0s
b00100000 u
0w
b00100000 {
0}
0""
0%"
0'"
b00100000 )"
b00100000 /"
13"
06"
08"
b00100000 :"
1<"
b00100000 @"
1B"
1D"
1G"
1I"
#125000000
1!
1%
#130000000
0!
0"
b01110000 $
0%
b01110000 '
0(
0/
00
b01110000 1
b01110000 7
0>
1@
b01110000 B
b01110000 H
0O
1Q
b01110000 S
b01110000 Y
0`
1b
b01110000 d
b01110000 j
0q
1s
b01110000 u
b01110000 {
1%"
1'"
b01110000 )"
b01110000 /"
16"
18"
b01110000 :"
0<"
b01110000 @"
0B"
0G"
0I"
#135000000
1!
1%
#140000000
0!
b01101110 $
0%
b01101110 '
1*
b01101110 1
b01101110 7
0;
0<
0=
1>
b01101110 B
1D
b01101110 H
1J
1L
1M
1N
1O
b01101110 S
b01101110 Y
0]
1^
0_
1`
b01101110 d
b01101110 j
1n
1o
1p
1q
b01101110 u
b01101110 {
1""
0#"
0$"
0%"
b01101110 )"
b01101110 /"
03"
04"
15"
06"
b01101110 :"
b01101110 @"
0D"
0E"
0F"
1G"
#145000000
1!
1%
#150000000
0!
b01100001 $
0%
b01100001 '
1)
0*
b01100001 1
13
b01100001 7
19
1:
1;
1<
1=
b01100001 B
0D
b01100001 H
0J
0K
0L
0M
0N
b01100001 S
b01100001 Y
0\
1]
0^
1_
b01100001 d
b01100001 j
1m
0n
0o
0p
b01100001 u
b01100001 {
0!"
0""
1#"
1$"
b01100001 )"
b01100001 /"
02"
13"
14"
05"
b01100001 :"
b01100001 @"
0C"
1D"
1E"
1F"
#155000000
1!
1%
#160000000
0!
b01101110 $
0%
b01101110 '
0)
1*
b01101110 1
03
b01101110 7
09
0:
0;
0<
0=
b01101110 B
1D
b01101110 H
1J
1K
1L
1M
1N
b01101110 S
b01101110 Y
1\
0]
1^
0_
b01101110 d
b01101110 j
0m
1n
1o
1p
b01101110 u
b01101110 {
1!"
1""
0#"
0$"
b01101110 )"
b01101110 /"
12"
03"
04"
15"
b01101110 :"
b01101110 @"
1C"
0D"
0E"
0F"
#165000000
1!
1%
#170000000
0!
b01100100 $
0%
b01100100 '
0*
1+
b01100100 1
b01100100 7
1;
1=
b01100100 B
0D
b01100100 H
0J
0L
0N
b01100100 S
1U
b01100100 Y
1[
1]
1_
b01100100 d
b01100100 j
0n
0p
b01100100 u
b01100100 {
0""
1$"
b01100100 )"
b01100100 /"
13"
05"
b01100100 :"
b01100100 @"
1D"
1F"
#175000000
1!
1%
#180000000
0!
1"
b00100000 $
0%
b00100000 '
1(
0+
1/
10
b00100000 1
b00100000 7
1<
0@
b00100000 B
b00100000 H
0M
0Q
b00100000 S
0U
b00100000 Y
0[
0^
0b
b00100000 d
b00100000 j
0o
0s
b00100000 u
b00100000 {
1#"
0'"
b00100000 )"
b00100000 /"
14"
08"
b00100000 :"
1<"
b00100000 @"
1B"
1E"
1I"
#185000000
1!
1%
#190000000
0!
0"
b01110000 $
0%
b01110000 '
0(
0/
00
b01110000 1
b01110000 7
0>
1@
b01110000 B
b01110000 H
0O
1Q
b01110000 S
b01110000 Y
0`
1b
b01110000 d
b01110000 j
0q
1s
b01110000 u
b01110000 {
1%"
1'"
b01110000 )"
b01110000 /"
16"
18"
b01110000 :"
0<"
b01110000 @"
0B"
0G"
0I"
#195000000
1!
1%
#200000000
0!
b01101110 $
0%
b01101110 '
1*
b01101110 1
b01101110 7
0;
0<
0=
1>
b01101110 B
1D
b01101110 H
1J
1L
1M
1N
1O
b01101110 S
b01101110 Y
0]
1^
0_
1`
b01101110 d
b01101110 j
1n
1o
1p
1q
b01101110 u
b01101110 {
1""
0#"
0$"
0%"
b01101110 )"
b01101110 /"
03"
04"
15"
06"
b01101110 :"
b01101110 @"
0D"
0E"
0F"
1G"
#205000000
1!
1%
#210000000
0!
b01101111 $
0%
b01101111 '
0*
1,
b01101111 1
b01101111 7
1:
b01101111 B
0D
b01101111 H
0J
0K
b01101111 S
b01101111 Y
0\
b01101111 d
1f
b01101111 j
1l
1m
b01101111 u
b01101111 {
0!"
b01101111 )"
b01101111 /"
02"
b01101111 :"
b01101111 @"
0C"
#215000000
1!
1%
#220000000
0!
b01110010 $
0%
b01110010 '
0,
1-
b01110010 1
b01110010 7
0:
1<
1=
0>
b01110010 B
b01110010 H
1K
0M
0N
0O
b01110010 S
b01110010 Y
1\
0^
1_
0`
b01110010 d
0f
b01110010 j
0l
0m
0o
0p
0q
b01110010 u
1w
b01110010 {
1}
1!"
1#"
1$"
1%"
b01110010 )"
b01110010 /"
12"
14"
05"
16"
b01110010 :"
b01110010 @"
1C"
1E"
1F"
0G"
#225000000
1!
1%
#230000000
0!
b00100000 $
0%
b00100000 '
0-
1/
b00100000 1
b00100000 7
1;
1>
0@
b00100000 B
b00100000 H
0L
1O
0Q
b00100000 S
b00100000 Y
1]
1`
0b
b00100000 d
b00100000 j
0n
1q
0s
b00100000 u
0w
b00100000 {
0}
0""
0%"
0'"
b00100000 )"
b00100000 /"
13"
06"
08"
b00100000 :"
1<"
b00100000 @"
1B"
1D"
1G"
1I"
#235000000
1!
1%
#240000000
0!
b01110000 $
0%
b01110000 '
0/
b01110000 1
b01110000 7
0>
1@
b01110000 B
b01110000 H
0O
1Q
b01110000 S
b01110000 Y
0`
1b
b01110000 d
b01110000 j
0q
1s
b01110000 u
b01110000 {
1%"
1'"
b01110000 )"
b01110000 /"
16"
18"
b01110000 :"
0<"
b01110000 @"
0B"
0G"
0I"
#245000000
1!
1%
#250000000
0!
b01111000 $
0%
b01111000 '
1.
b01111000 1
b01111000 7
0=
b01111000 B
b01111000 H
1N
b01111000 S
b01111000 Y
0_
b01111000 d
b01111000 j
1p
b01111000 u
b01111000 {
0$"
b01111000 )"
1+"
b01111000 /"
11"
15"
b01111000 :"
b01111000 @"
0F"
#255000000
1!
1%
#260000000
0!
b01101110 $
0%
b01101110 '
1*
0.
b01101110 1
b01101110 7
0;
0<
1>
b01101110 B
1D
b01101110 H
1J
1L
1M
1O
b01101110 S
b01101110 Y
0]
1^
1`
b01101110 d
b01101110 j
1n
1o
1q
b01101110 u
b01101110 {
1""
0#"
0%"
b01101110 )"
0+"
b01101110 /"
01"
03"
04"
06"
b01101110 :"
b01101110 @"
0D"
0E"
1G"
#265000000
1!
1%
#270000000
0!
b01101111 $
0%
b01101111 '
0*
1,
b01101111 1
b01101111 7
1:
b01101111 B
0D
b01101111 H
0J
0K
b01101111 S
b01101111 Y
0\
b01101111 d
1f
b01101111 j
1l
1m
b01101111 u
b01101111 {
0!"
b01101111 )"
b01101111 /"
02"
b01101111 :"
b01101111 @"
0C"
#275000000
1!
1%
#280000000
0!
b01110010 $
0%
b01110010 '
0,
1-
b01110010 1
b01110010 7
0:
1<
1=
0>
b01110010 B
b01110010 H
1K
0M
0N
0O
b01110010 S
b01110010 Y
1\
0^
1_
0`
b01110010 d
0f
b01110010 j
0l
0m
0o
0p
0q
b01110010 u
1w
b01110010 {
1}
1!"
1#"
1$"
1%"
b01110010 )"
b01110010 /"
12"
14"
05"
16"
b01110010 :"
b01110010 @"
1C"
1E"
1F"
0G"
#285000000
1!
1%
#290000000
0!
1"
b00100000 $
0%
b00100000 '
1(
0-
1/
10
b00100000 1
b00100000 7
1;
1>
0@
b00100000 B
b00100000 H
0L
1O
0Q
b00100000 S
b00100000 Y
1]
1`
0b
b00100000 d
b00100000 j
0n
1q
0s
b00100000 u
0w
b00100000 {
0}
0""
0%"
0'"
b00100000 )"
b00100000 /"
13"
06"
08"
b00100000 :"
1<"
b00100000 @"
1B"
1D"
1G"
1I"
#295000000
1!
1%
#300000000
0!
0"
b01110000 $
0%
b01110000 '
0(
0/
00
b01110000 1
b01110000 7
0>
1@
b01110000 B
b01110000 H
0O
1Q
b01110000 S
b01110000 Y
0`
1b
b01110000 d
b01110000 j
0q
1s
b01110000 u
b01110000 {
1%"
1'"
b01110000 )"
b01110000 /"
16"
18"
b01110000 :"
0<"
b01110000 @"
0B"
0G"
0I"
#305000000
1!
1%
#310000000
0!
b01101110 $
0%
b01101110 '
1*
b01101110 1
b01101110 7
0;
0<
0=
1>
b01101110 B
1D
b01101110 H
1J
1L
1M
1N
1O
b01101110 S
b01101110 Y
0]
1^
0_
1`
b01101110 d
b01101110 j
1n
1o
1p
1q
b01101110 u
b01101110 {
1""
0#"
0$"
0%"
b01101110 )"
b01101110 /"
03"
04"
15"
06"
b01101110 :"
b01101110 @"
0D"
0E"
0F"
1G"
#315000000
1!
1%
#320000000
0!
b01101111 $
0%
b01101111 '
0*
1,
b01101111 1
b01101111 7
1:
b01101111 B
0D
b01101111 H
0J
0K
b01101111 S
b01101111 Y
0\
b01101111 d
1f
b01101111 j
1l
1m
b01101111 u
b01101111 {
0!"
b01101111 )"
b01101111 /"
02"
b01101111 :"
b01101111 @"
0C"
#325000000
1!
1%
#330000000
0!
b01101110 $
0%
b01101110 '
1*
0,
b01101110 1
b01101110 7
0:
b01101110 B
1D
b01101110 H
1J
1K
b01101110 S
b01101110 Y
1\
b01101110 d
0f
b01101110 j
0l
0m
b01101110 u
b01101110 {
1!"
b01101110 )"
b01101110 /"
12"
b01101110 :"
b01101110 @"
1C"
#335000000
1!
1%
#340000000
0!
b01100100 $
0%
b01100100 '
0*
1+
b01100100 1
b01100100 7
1;
1=
b01100100 B
0D
b01100100 H
0J
0L
0N
b01100100 S
1U
b01100100 Y
1[
1]
1_
b01100100 d
b01100100 j
0n
0p
b01100100 u
b01100100 {
0""
1$"
b01100100 )"
b01100100 /"
13"
05"
b01100100 :"
b01100100 @"
1D"
1F"
#345000000
1!
1%
#350000000
0!
b00100000 $
0%
b00100000 '
0+
1/
b00100000 1
b00100000 7
1<
0@
b00100000 B
b00100000 H
0M
0Q
b00100000 S
0U
b00100000 Y
0[
0^
0b
b00100000 d
b00100000 j
0o
0s
b00100000 u
b00100000 {
1#"
0'"
b00100000 )"
b00100000 /"
14"
08"
b00100000 :"
1<"
b00100000 @"
1B"
1E"
1I"
