s_tb_endDetector.vcd
$date
  Mon Jun  4 17:20:07 2018
$end
$version
  GHDL v0
$end
$timescale
  1 fs
$end
$var reg 1 ! clk $end
$var reg 1 " detectedbit $end
$var reg 1 # reset $end
$var reg 8 $ bitinput[7:0] $end
$scope module detector $end
$var reg 1 % clk $end
$var reg 1 & reset $end
$var reg 8 ' bitinput[7:0] $end
$var reg 1 ( detectedbit $end
$comment estado_ini is not handled $end
$comment estado_sig is not handled $end
$var reg 1 ) chare $end
$var reg 1 * charn $end
$var reg 1 + chard $end
$var reg 1 , charspace $end
$var reg 1 - estadoant $end
$var reg 4 . est[3:0] $end
$scope module memcomparee $end
$var reg 8 / charinput[7:0] $end
$var integer 32 0 address $end
$var reg 1 1 iscorrect $end
$var reg 8 2 auxdata[7:0] $end
$scope module rom1 $end
$var integer 32 3 address $end
$var reg 8 4 data[7:0] $end
$upscope $end
$scope module comparador $end
$var reg 8 5 charinputa[7:0] $end
$var reg 8 6 charinputb[7:0] $end
$var reg 1 7 bitoutput $end
$var reg 1 8 a1 $end
$var reg 1 9 a2 $end
$var reg 1 : a3 $end
$var reg 1 ; a4 $end
$var reg 1 < a5 $end
$var reg 1 = a6 $end
$var reg 1 > a7 $end
$var reg 1 ? a8 $end
$upscope $end
$upscope $end
$scope module memcomparen $end
$var reg 8 @ charinput[7:0] $end
$var integer 32 A address $end
$var reg 1 B iscorrect $end
$var reg 8 C auxdata[7:0] $end
$scope module rom1 $end
$var integer 32 D address $end
$var reg 8 E data[7:0] $end
$upscope $end
$scope module comparador $end
$var reg 8 F charinputa[7:0] $end
$var reg 8 G charinputb[7:0] $end
$var reg 1 H bitoutput $end
$var reg 1 I a1 $end
$var reg 1 J a2 $end
$var reg 1 K a3 $end
$var reg 1 L a4 $end
$var reg 1 M a5 $end
$var reg 1 N a6 $end
$var reg 1 O a7 $end
$var reg 1 P a8 $end
$upscope $end
$upscope $end
$scope module memcompared $end
$var reg 8 Q charinput[7:0] $end
$var integer 32 R address $end
$var reg 1 S iscorrect $end
$var reg 8 T auxdata[7:0] $end
$scope module rom1 $end
$var integer 32 U address $end
$var reg 8 V data[7:0] $end
$upscope $end
$scope module comparador $end
$var reg 8 W charinputa[7:0] $end
$var reg 8 X charinputb[7:0] $end
$var reg 1 Y bitoutput $end
$var reg 1 Z a1 $end
$var reg 1 [ a2 $end
$var reg 1 \ a3 $end
$var reg 1 ] a4 $end
$var reg 1 ^ a5 $end
$var reg 1 _ a6 $end
$var reg 1 ` a7 $end
$var reg 1 a a8 $end
$upscope $end
$upscope $end
$scope module memcomparespace $end
$var reg 8 b charinput[7:0] $end
$var integer 32 c address $end
$var reg 1 d iscorrect $end
$var reg 8 e auxdata[7:0] $end
$scope module rom1 $end
$var integer 32 f address $end
$var reg 8 g data[7:0] $end
$upscope $end
$scope module comparador $end
$var reg 8 h charinputa[7:0] $end
$var reg 8 i charinputb[7:0] $end
$var reg 1 j bitoutput $end
$var reg 1 k a1 $end
$var reg 1 l a2 $end
$var reg 1 m a3 $end
$var reg 1 n a4 $end
$var reg 1 o a5 $end
$var reg 1 p a6 $end
$var reg 1 q a7 $end
$var reg 1 r a8 $end
$upscope $end
$upscope $end
$upscope $end
$enddefinitions $end
#0
0!
0"
0#
b01100101 $
0%
0&
b01100101 '
0(
1)
0*
0+
0,
0-
b0001 .
b01100101 /
b100 0
11
b01100101 2
b100 3
b01100101 4
b01100101 5
b01100101 6
17
18
19
1:
1;
1<
1=
1>
1?
b01100101 @
b1101 A
0B
b01101110 C
b1101 D
b01101110 E
b01100101 F
b01101110 G
0H
0I
0J
1K
0L
1M
1N
1O
1P
b01100101 Q
b11 R
0S
b01100100 T
b11 U
b01100100 V
b01100101 W
b01100100 X
0Y
0Z
1[
1\
1]
1^
1_
1`
1a
b01100101 b
b11010 c
0d
b00100000 e
b11010 f
b00100000 g
b01100101 h
b00100000 i
0j
0k
1l
0m
1n
1o
1p
0q
1r
#5000000
1!
1%
b0010 .
#10000000
0!
b01101110 $
0%
b01101110 '
0)
1*
b01101110 /
01
b01101110 5
07
08
09
0;
b01101110 @
1B
b01101110 F
1H
1I
1J
1L
b01101110 Q
b01101110 W
1Z
0[
0]
b01101110 b
b01101110 h
1k
0l
0n
#15000000
1!
1%
b0100 .
#20000000
0!
b01100100 $
0%
b01100100 '
0*
1+
b01100100 /
b01100100 5
19
1;
b01100100 @
0B
b01100100 F
0H
0J
0L
b01100100 Q
1S
b01100100 W
1Y
1[
1]
b01100100 b
b01100100 h
1l
1n
#25000000
1!
1%
#30000000
0!
1"
b00100000 $
0%
b00100000 '
1(
0+
1,
1-
b00100000 /
b00100000 5
0:
0>
b00100000 @
b00100000 F
0K
0O
b00100000 Q
0S
b00100000 W
0Y
0\
0`
b00100000 b
1d
b00100000 h
1j
1m
1q
#35000000
1!
1%
b0001 .
#40000000
0!
0"
b01100101 $
0%
b01100101 '
0(
1)
0,
b01100101 /
11
b01100101 5
17
18
1:
1>
b01100101 @
b01100101 F
0I
1K
1O
b01100101 Q
b01100101 W
0Z
1\
1`
b01100101 b
0d
b01100101 h
0j
0k
0m
0q
#45000000
1!
1%
b0010 .
#50000000
0!
b01101110 $
0%
b01101110 '
0)
1*
b01101110 /
01
b01101110 5
07
08
09
0;
b01101110 @
1B
b01101110 F
1H
1I
1J
1L
b01101110 Q
b01101110 W
1Z
0[
0]
b01101110 b
b01101110 h
1k
0l
0n
#55000000
1!
1%
b0100 .
#60000000
0!
b01100100 $
0%
b01100100 '
0*
1+
b01100100 /
b01100100 5
19
1;
b01100100 @
0B
b01100100 F
0H
0J
0L
b01100100 Q
1S
b01100100 W
1Y
1[
1]
b01100100 b
b01100100 h
1l
1n
#65000000
1!
1%
0-
#70000000
0!
1"
b00100000 $
0%
b00100000 '
1(
0+
1,
1-
b00100000 /
b00100000 5
0:
0>
b00100000 @
b00100000 F
0K
0O
b00100000 Q
0S
b00100000 W
0Y
0\
0`
b00100000 b
1d
b00100000 h
1j
1m
1q
#75000000
1!
1%
b0001 .
#80000000
0!
0%
#85000000
1!
1%
#90000000
0!
0%
#95000000
1!
1%
#100000000
0!
0"
b01000000 $
0%
b01000000 '
0(
0,
0-
b01000000 /
b01000000 5
0=
1>
b01000000 @
b01000000 F
0N
1O
b01000000 Q
b01000000 W
0_
1`
b01000000 b
0d
b01000000 h
0j
0p
0q
