simulation/s_entityClaus.vcd
$date
  Tue May 29 14:29:55 2018
$end
$version
  GHDL v0
$end
$timescale
  1 fs
$end
$var reg 1 ! clk $end
$var reg 1 " detectedbit $end
$var reg 1 # reset $end
$var reg 8 $ bitinput[7:0] $end
$scope module entityclausdetector $end
$var reg 1 % clk $end
$var reg 1 & reset $end
$var reg 8 ' bitinput[7:0] $end
$var reg 1 ( detectedbit $end
$var reg 1 ) entdetected $end
$var reg 1 * enddetected $end
$var reg 1 + charpuntocoma $end
$var reg 1 , interrupcion $end
$var reg 3 - seguimiento[2:0] $end
$comment state is not handled $end
$scope module entdetector $end
$var reg 1 . clk $end
$var reg 1 / reset $end
$var reg 8 0 bitinput[7:0] $end
$var reg 1 1 detectedbit $end
$var reg 1 2 chare $end
$var reg 1 3 charn $end
$var reg 1 4 chart $end
$var reg 1 5 chari $end
$var reg 1 6 chary $end
$var reg 1 7 charspace $end
$var reg 1 8 interrupcion $end
$var reg 7 9 seguimiento[6:0] $end
$comment state is not handled $end
$scope module memcomparee $end
$var reg 8 : charinput[7:0] $end
$var integer 32 ; address $end
$var reg 1 < iscorrect $end
$var reg 8 = auxdata[7:0] $end
$scope module rom1 $end
$var integer 32 > address $end
$var reg 8 ? data[7:0] $end
$upscope $end
$scope module comparador $end
$var reg 8 @ charinputa[7:0] $end
$var reg 8 A charinputb[7:0] $end
$var reg 1 B bitoutput $end
$var reg 1 C a1 $end
$var reg 1 D a2 $end
$var reg 1 E a3 $end
$var reg 1 F a4 $end
$var reg 1 G a5 $end
$var reg 1 H a6 $end
$var reg 1 I a7 $end
$var reg 1 J a8 $end
$upscope $end
$upscope $end
$scope module memcomparen $end
$var reg 8 K charinput[7:0] $end
$var integer 32 L address $end
$var reg 1 M iscorrect $end
$var reg 8 N auxdata[7:0] $end
$scope module rom1 $end
$var integer 32 O address $end
$var reg 8 P data[7:0] $end
$upscope $end
$scope module comparador $end
$var reg 8 Q charinputa[7:0] $end
$var reg 8 R charinputb[7:0] $end
$var reg 1 S bitoutput $end
$var reg 1 T a1 $end
$var reg 1 U a2 $end
$var reg 1 V a3 $end
$var reg 1 W a4 $end
$var reg 1 X a5 $end
$var reg 1 Y a6 $end
$var reg 1 Z a7 $end
$var reg 1 [ a8 $end
$upscope $end
$upscope $end
$scope module memcomparet $end
$var reg 8 \ charinput[7:0] $end
$var integer 32 ] address $end
$var reg 1 ^ iscorrect $end
$var reg 8 _ auxdata[7:0] $end
$scope module rom1 $end
$var integer 32 ` address $end
$var reg 8 a data[7:0] $end
$upscope $end
$scope module comparador $end
$var reg 8 b charinputa[7:0] $end
$var reg 8 c charinputb[7:0] $end
$var reg 1 d bitoutput $end
$var reg 1 e a1 $end
$var reg 1 f a2 $end
$var reg 1 g a3 $end
$var reg 1 h a4 $end
$var reg 1 i a5 $end
$var reg 1 j a6 $end
$var reg 1 k a7 $end
$var reg 1 l a8 $end
$upscope $end
$upscope $end
$scope module memcomparei $end
$var reg 8 m charinput[7:0] $end
$var integer 32 n address $end
$var reg 1 o iscorrect $end
$var reg 8 p auxdata[7:0] $end
$scope module rom1 $end
$var integer 32 q address $end
$var reg 8 r data[7:0] $end
$upscope $end
$scope module comparador $end
$var reg 8 s charinputa[7:0] $end
$var reg 8 t charinputb[7:0] $end
$var reg 1 u bitoutput $end
$var reg 1 v a1 $end
$var reg 1 w a2 $end
$var reg 1 x a3 $end
$var reg 1 y a4 $end
$var reg 1 z a5 $end
$var reg 1 { a6 $end
$var reg 1 | a7 $end
$var reg 1 } a8 $end
$upscope $end
$upscope $end
$scope module memcomparey $end
$var reg 8 !" charinput[7:0] $end
$var integer 32 "" address $end
$var reg 1 #" iscorrect $end
$var reg 8 $" auxdata[7:0] $end
$scope module rom1 $end
$var integer 32 %" address $end
$var reg 8 &" data[7:0] $end
$upscope $end
$scope module comparador $end
$var reg 8 '" charinputa[7:0] $end
$var reg 8 (" charinputb[7:0] $end
$var reg 1 )" bitoutput $end
$var reg 1 *" a1 $end
$var reg 1 +" a2 $end
$var reg 1 ," a3 $end
$var reg 1 -" a4 $end
$var reg 1 ." a5 $end
$var reg 1 /" a6 $end
$var reg 1 0" a7 $end
$var reg 1 1" a8 $end
$upscope $end
$upscope $end
$scope module memcomparespace $end
$var reg 8 2" charinput[7:0] $end
$var integer 32 3" address $end
$var reg 1 4" iscorrect $end
$var reg 8 5" auxdata[7:0] $end
$scope module rom1 $end
$var integer 32 6" address $end
$var reg 8 7" data[7:0] $end
$upscope $end
$scope module comparador $end
$var reg 8 8" charinputa[7:0] $end
$var reg 8 9" charinputb[7:0] $end
$var reg 1 :" bitoutput $end
$var reg 1 ;" a1 $end
$var reg 1 <" a2 $end
$var reg 1 =" a3 $end
$var reg 1 >" a4 $end
$var reg 1 ?" a5 $end
$var reg 1 @" a6 $end
$var reg 1 A" a7 $end
$var reg 1 B" a8 $end
$upscope $end
$upscope $end
$upscope $end
$scope module enddetector $end
$var reg 1 C" clk $end
$var reg 1 D" reset $end
$var reg 8 E" bitinput[7:0] $end
$var reg 1 F" detectedbit $end
$comment state is not handled $end
$var reg 1 G" chare $end
$var reg 1 H" charn $end
$var reg 1 I" chard $end
$var reg 1 J" charspace $end
$var reg 1 K" interrupcion $end
$scope module memcomparee $end
$var reg 8 L" charinput[7:0] $end
$var integer 32 M" address $end
$var reg 1 N" iscorrect $end
$var reg 8 O" auxdata[7:0] $end
$scope module rom1 $end
$var integer 32 P" address $end
$var reg 8 Q" data[7:0] $end
$upscope $end
$scope module comparador $end
$var reg 8 R" charinputa[7:0] $end
$var reg 8 S" charinputb[7:0] $end
$var reg 1 T" bitoutput $end
$var reg 1 U" a1 $end
$var reg 1 V" a2 $end
$var reg 1 W" a3 $end
$var reg 1 X" a4 $end
$var reg 1 Y" a5 $end
$var reg 1 Z" a6 $end
$var reg 1 [" a7 $end
$var reg 1 \" a8 $end
$upscope $end
$upscope $end
$scope module memcomparen $end
$var reg 8 ]" charinput[7:0] $end
$var integer 32 ^" address $end
$var reg 1 _" iscorrect $end
$var reg 8 `" auxdata[7:0] $end
$scope module rom1 $end
$var integer 32 a" address $end
$var reg 8 b" data[7:0] $end
$upscope $end
$scope module comparador $end
$var reg 8 c" charinputa[7:0] $end
$var reg 8 d" charinputb[7:0] $end
$var reg 1 e" bitoutput $end
$var reg 1 f" a1 $end
$var reg 1 g" a2 $end
$var reg 1 h" a3 $end
$var reg 1 i" a4 $end
$var reg 1 j" a5 $end
$var reg 1 k" a6 $end
$var reg 1 l" a7 $end
$var reg 1 m" a8 $end
$upscope $end
$upscope $end
$scope module memcompared $end
$var reg 8 n" charinput[7:0] $end
$var integer 32 o" address $end
$var reg 1 p" iscorrect $end
$var reg 8 q" auxdata[7:0] $end
$scope module rom1 $end
$var integer 32 r" address $end
$var reg 8 s" data[7:0] $end
$upscope $end
$scope module comparador $end
$var reg 8 t" charinputa[7:0] $end
$var reg 8 u" charinputb[7:0] $end
$var reg 1 v" bitoutput $end
$var reg 1 w" a1 $end
$var reg 1 x" a2 $end
$var reg 1 y" a3 $end
$var reg 1 z" a4 $end
$var reg 1 {" a5 $end
$var reg 1 |" a6 $end
$var reg 1 }" a7 $end
$var reg 1 !# a8 $end
$upscope $end
$upscope $end
$scope module memcomparespace $end
$var reg 8 "# charinput[7:0] $end
$var integer 32 ## address $end
$var reg 1 $# iscorrect $end
$var reg 8 %# auxdata[7:0] $end
$scope module rom1 $end
$var integer 32 &# address $end
$var reg 8 '# data[7:0] $end
$upscope $end
$scope module comparador $end
$var reg 8 (# charinputa[7:0] $end
$var reg 8 )# charinputb[7:0] $end
$var reg 1 *# bitoutput $end
$var reg 1 +# a1 $end
$var reg 1 ,# a2 $end
$var reg 1 -# a3 $end
$var reg 1 .# a4 $end
$var reg 1 /# a5 $end
$var reg 1 0# a6 $end
$var reg 1 1# a7 $end
$var reg 1 2# a8 $end
$upscope $end
$upscope $end
$upscope $end
$scope module puntocompare $end
$var reg 8 3# charinput[7:0] $end
$var integer 32 4# address $end
$var reg 1 5# iscorrect $end
$var reg 8 6# auxdata[7:0] $end
$scope module rom1 $end
$var integer 32 7# address $end
$var reg 8 8# data[7:0] $end
$upscope $end
$scope module comparador $end
$var reg 8 9# charinputa[7:0] $end
$var reg 8 :# charinputb[7:0] $end
$var reg 1 ;# bitoutput $end
$var reg 1 <# a1 $end
$var reg 1 =# a2 $end
$var reg 1 ># a3 $end
$var reg 1 ?# a4 $end
$var reg 1 @# a5 $end
$var reg 1 A# a6 $end
$var reg 1 B# a7 $end
$var reg 1 C# a8 $end
$upscope $end
$upscope $end
$upscope $end
$enddefinitions $end
#0
0!
U"
0#
b01100101 $
0%
0&
b01100101 '
U(
U)
U*
0+
0,
bUUU -
0.
0/
b01100101 0
U1
12
03
04
05
06
07
08
bUUUUUUU 9
b01100101 :
b100 ;
1<
b01100101 =
b100 >
b01100101 ?
b01100101 @
b01100101 A
1B
1C
1D
1E
1F
1G
1H
1I
1J
b01100101 K
b1101 L
0M
b01101110 N
b1101 O
b01101110 P
b01100101 Q
b01101110 R
0S
0T
0U
1V
0W
1X
1Y
1Z
1[
b01100101 \
b10011 ]
0^
b01110100 _
b10011 `
b01110100 a
b01100101 b
b01110100 c
0d
0e
1f
1g
1h
0i
1j
1k
1l
b01100101 m
b1000 n
0o
b01101001 p
b1000 q
b01101001 r
b01100101 s
b01101001 t
0u
1v
1w
0x
0y
1z
1{
1|
1}
b01100101 !"
b11000 ""
0#"
b01111001 $"
b11000 %"
b01111001 &"
b01100101 '"
b01111001 ("
0)"
1*"
1+"
0,"
0-"
0."
1/"
10"
11"
b01100101 2"
b11010 3"
04"
b00100000 5"
b11010 6"
b00100000 7"
b01100101 8"
b00100000 9"
0:"
0;"
1<"
0="
1>"
1?"
1@"
0A"
1B"
0C"
0D"
b01100101 E"
UF"
1G"
0H"
0I"
0J"
0K"
b01100101 L"
b100 M"
1N"
b01100101 O"
b100 P"
b01100101 Q"
b01100101 R"
b01100101 S"
1T"
1U"
1V"
1W"
1X"
1Y"
1Z"
1["
1\"
b01100101 ]"
b1101 ^"
0_"
b01101110 `"
b1101 a"
b01101110 b"
b01100101 c"
b01101110 d"
0e"
0f"
0g"
1h"
0i"
1j"
1k"
1l"
1m"
b01100101 n"
b11 o"
0p"
b01100100 q"
b11 r"
b01100100 s"
b01100101 t"
b01100100 u"
0v"
0w"
1x"
1y"
1z"
1{"
1|"
1}"
1!#
b01100101 "#
b11010 ##
0$#
b00100000 %#
b11010 &#
b00100000 '#
b01100101 (#
b00100000 )#
0*#
0+#
1,#
0-#
1.#
1/#
10#
01#
12#
b01100101 3#
b11110 4#
05#
b00111011 6#
b11110 7#
b00111011 8#
b01100101 9#
b00111011 :#
0;#
1<#
0=#
0>#
0?#
0@#
1A#
0B#
1C#
#5000000
1!
0"
1%
0(
0)
0*
b000 -
1.
01
1C"
0F"
#10000000
0!
b01101110 $
0%
b01101110 '
0.
b01101110 0
02
13
b01101110 :
0<
b01101110 @
0B
0C
0D
0F
b01101110 K
1M
b01101110 Q
1S
1T
1U
1W
b01101110 \
b01101110 b
1e
0f
0h
b01101110 m
b01101110 s
0v
0w
1y
b01101110 !"
b01101110 '"
0*"
0+"
1-"
b01101110 2"
b01101110 8"
1;"
0<"
0>"
0C"
b01101110 E"
0G"
1H"
b01101110 L"
0N"
b01101110 R"
0T"
0U"
0V"
0X"
b01101110 ]"
1_"
b01101110 c"
1e"
1f"
1g"
1i"
b01101110 n"
b01101110 t"
1w"
0x"
0z"
b01101110 "#
b01101110 (#
1+#
0,#
0.#
b01101110 3#
b01101110 9#
0<#
1=#
1?#
#15000000
1!
1%
1.
1C"
#20000000
0!
b01110100 $
0%
b01110100 '
0.
b01110100 0
03
14
b01110100 :
b01110100 @
1D
1F
0G
b01110100 K
0M
b01110100 Q
0S
0U
0W
0X
b01110100 \
1^
b01110100 b
1d
1f
1h
1i
b01110100 m
b01110100 s
1w
0y
0z
b01110100 !"
b01110100 '"
1+"
0-"
1."
b01110100 2"
b01110100 8"
1<"
1>"
0?"
0C"
b01110100 E"
0H"
b01110100 L"
b01110100 R"
1V"
1X"
0Y"
b01110100 ]"
0_"
b01110100 c"
0e"
0g"
0i"
0j"
b01110100 n"
b01110100 t"
1x"
1z"
0{"
b01110100 "#
b01110100 (#
1,#
1.#
0/#
b01110100 3#
b01110100 9#
0=#
0?#
1@#
#25000000
1!
1%
1.
1C"
1K"
#30000000
0!
b01101001 $
0%
b01101001 '
0.
b01101001 0
04
15
b01101001 :
b01101001 @
1C
0E
0F
1G
b01101001 K
b01101001 Q
0T
0V
1W
1X
b01101001 \
0^
b01101001 b
0d
0e
0g
0h
0i
b01101001 m
1o
b01101001 s
1u
1v
1x
1y
1z
b01101001 !"
b01101001 '"
1*"
1,"
1-"
0."
b01101001 2"
b01101001 8"
0;"
1="
0>"
1?"
0C"
b01101001 E"
0K"
b01101001 L"
b01101001 R"
1U"
0W"
0X"
1Y"
b01101001 ]"
b01101001 c"
0f"
0h"
1i"
1j"
b01101001 n"
b01101001 t"
0w"
0y"
0z"
1{"
b01101001 "#
b01101001 (#
0+#
1-#
0.#
1/#
b01101001 3#
b01101001 9#
1<#
1>#
1?#
0@#
#35000000
1!
1%
1.
1C"
1K"
#40000000
0!
b01110100 $
0%
b01110100 '
0.
b01110100 0
14
05
b01110100 :
b01110100 @
0C
1E
1F
0G
b01110100 K
b01110100 Q
1T
1V
0W
0X
b01110100 \
1^
b01110100 b
1d
1e
1g
1h
1i
b01110100 m
0o
b01110100 s
0u
0v
0x
0y
0z
b01110100 !"
b01110100 '"
0*"
0,"
0-"
1."
b01110100 2"
b01110100 8"
1;"
0="
1>"
0?"
0C"
b01110100 E"
0K"
b01110100 L"
b01110100 R"
0U"
1W"
1X"
0Y"
b01110100 ]"
b01110100 c"
1f"
1h"
0i"
0j"
b01110100 n"
b01110100 t"
1w"
1y"
1z"
0{"
b01110100 "#
b01110100 (#
1+#
0-#
1.#
0/#
b01110100 3#
b01110100 9#
0<#
0>#
0?#
1@#
#45000000
1!
1%
1.
1C"
1K"
#50000000
0!
b01111001 $
0%
b01111001 '
0.
b01111001 0
04
16
b01111001 :
b01111001 @
1C
0E
0F
b01111001 K
b01111001 Q
0T
0V
1W
b01111001 \
0^
b01111001 b
0d
0e
0g
0h
b01111001 m
b01111001 s
1v
1x
1y
b01111001 !"
1#"
b01111001 '"
1)"
1*"
1,"
1-"
b01111001 2"
b01111001 8"
0;"
1="
0>"
0C"
b01111001 E"
0K"
b01111001 L"
b01111001 R"
1U"
0W"
0X"
b01111001 ]"
b01111001 c"
0f"
0h"
1i"
b01111001 n"
b01111001 t"
0w"
0y"
0z"
b01111001 "#
b01111001 (#
0+#
1-#
0.#
b01111001 3#
b01111001 9#
1<#
1>#
1?#
#55000000
1!
1%
1.
1C"
1K"
#60000000
0!
b00100000 $
0%
b00100000 '
0.
b00100000 0
06
17
b00100000 :
b00100000 @
0C
1F
1G
0I
b00100000 K
b00100000 Q
1T
0W
1X
0Z
b00100000 \
b00100000 b
1e
1h
0i
0k
b00100000 m
b00100000 s
0v
0y
1z
0|
b00100000 !"
0#"
b00100000 '"
0)"
0*"
0-"
0."
00"
b00100000 2"
14"
b00100000 8"
1:"
1;"
1>"
1?"
1A"
0C"
b00100000 E"
1J"
0K"
b00100000 L"
b00100000 R"
0U"
1X"
1Y"
0["
b00100000 ]"
b00100000 c"
1f"
0i"
1j"
0l"
b00100000 n"
b00100000 t"
1w"
1z"
1{"
0}"
b00100000 "#
1$#
b00100000 (#
1*#
1+#
1.#
1/#
11#
b00100000 3#
b00100000 9#
0<#
0?#
0@#
1B#
#65000000
1!
1%
1)
1.
11
1C"
1K"
#70000000
0!
b01100101 $
0%
b01100101 '
0.
b01100101 0
12
07
b01100101 :
1<
b01100101 @
1B
1C
1E
1I
b01100101 K
b01100101 Q
0T
1V
1Z
b01100101 \
b01100101 b
0e
1g
1k
b01100101 m
b01100101 s
1v
0x
1|
b01100101 !"
b01100101 '"
1*"
0,"
10"
b01100101 2"
04"
b01100101 8"
0:"
0;"
0="
0A"
0C"
b01100101 E"
1G"
0J"
0K"
b01100101 L"
1N"
b01100101 R"
1T"
1U"
1W"
1["
b01100101 ]"
b01100101 c"
0f"
1h"
1l"
b01100101 n"
b01100101 t"
0w"
1y"
1}"
b01100101 "#
0$#
b01100101 (#
0*#
0+#
0-#
01#
b01100101 3#
b01100101 9#
1<#
0>#
0B#
#75000000
1!
1%
0)
1.
01
1C"
#80000000
0!
b01101110 $
0%
b01101110 '
0.
b01101110 0
02
13
b01101110 :
0<
b01101110 @
0B
0C
0D
0F
b01101110 K
1M
b01101110 Q
1S
1T
1U
1W
b01101110 \
b01101110 b
1e
0f
0h
b01101110 m
b01101110 s
0v
0w
1y
b01101110 !"
b01101110 '"
0*"
0+"
1-"
b01101110 2"
b01101110 8"
1;"
0<"
0>"
0C"
b01101110 E"
0G"
1H"
b01101110 L"
0N"
b01101110 R"
0T"
0U"
0V"
0X"
b01101110 ]"
1_"
b01101110 c"
1e"
1f"
1g"
1i"
b01101110 n"
b01101110 t"
1w"
0x"
0z"
b01101110 "#
b01101110 (#
1+#
0,#
0.#
b01101110 3#
b01101110 9#
0<#
1=#
1?#
#85000000
1!
1%
b010 -
1.
1C"
#90000000
0!
b01100100 $
0%
b01100100 '
0.
b01100100 0
03
b01100100 :
b01100100 @
1D
1F
b01100100 K
0M
b01100100 Q
0S
0U
0W
b01100100 \
b01100100 b
1f
1h
b01100100 m
b01100100 s
1w
0y
b01100100 !"
b01100100 '"
1+"
0-"
b01100100 2"
b01100100 8"
1<"
1>"
0C"
b01100100 E"
0H"
1I"
b01100100 L"
b01100100 R"
1V"
1X"
b01100100 ]"
0_"
b01100100 c"
0e"
0g"
0i"
b01100100 n"
1p"
b01100100 t"
1v"
1x"
1z"
b01100100 "#
b01100100 (#
1,#
1.#
b01100100 3#
b01100100 9#
0=#
0?#
#95000000
1!
1%
1.
18
1C"
#100000000
0!
b00100000 $
0%
b00100000 '
0.
b00100000 0
17
08
b00100000 :
b00100000 @
0E
0I
b00100000 K
b00100000 Q
0V
0Z
b00100000 \
b00100000 b
0g
0k
b00100000 m
b00100000 s
1x
0|
b00100000 !"
b00100000 '"
1,"
00"
b00100000 2"
14"
b00100000 8"
1:"
1="
1A"
0C"
b00100000 E"
0I"
1J"
b00100000 L"
b00100000 R"
0W"
0["
b00100000 ]"
b00100000 c"
0h"
0l"
b00100000 n"
0p"
b00100000 t"
0v"
0y"
0}"
b00100000 "#
1$#
b00100000 (#
1*#
1-#
11#
b00100000 3#
b00100000 9#
1>#
1B#
#105000000
1!
1%
1*
1.
18
1C"
1F"
#110000000
0!
b00111011 $
0%
b00111011 '
1+
0.
b00111011 0
07
08
b00111011 :
b00111011 @
1C
0D
0F
0G
b00111011 K
b00111011 Q
0T
1U
1W
0X
b00111011 \
b00111011 b
0e
0f
0h
1i
b00111011 m
b00111011 s
1v
0w
1y
0z
b00111011 !"
b00111011 '"
1*"
0+"
1-"
1."
b00111011 2"
04"
b00111011 8"
0:"
0;"
0<"
0>"
0?"
0C"
b00111011 E"
0J"
b00111011 L"
b00111011 R"
1U"
0V"
0X"
0Y"
b00111011 ]"
b00111011 c"
0f"
1g"
1i"
0j"
b00111011 n"
b00111011 t"
0w"
0x"
0z"
0{"
b00111011 "#
0$#
b00111011 (#
0*#
0+#
0,#
0.#
0/#
b00111011 3#
15#
b00111011 9#
1;#
1<#
1=#
1?#
1@#
#115000000
1!
1%
1.
18
1C"
1K"
#120000000
0!
0%
0*
0.
08
0C"
0F"
0K"
#125000000
1!
1"
1%
1(
b100 -
1.
18
1C"
1K"
#130000000
0!
0%
0.
08
0C"
0K"
#135000000
1!
1%
1.
18
1C"
1K"
#140000000
0!
0%
0.
08
0C"
0K"
#145000000
1!
1%
1.
18
1C"
1K"
#150000000
0!
0%
0.
08
0C"
0K"
#155000000
1!
1%
1.
18
1C"
1K"
#160000000
0!
0%
0.
08
0C"
0K"
#165000000
1!
1%
1.
18
1C"
1K"
#170000000
0!
0%
0.
08
0C"
0K"
#175000000
1!
1%
1.
18
1C"
1K"
#180000000
0!
0%
0.
08
0C"
0K"
#185000000
1!
1%
1.
18
1C"
1K"
#190000000
0!
0%
0.
08
0C"
0K"
#195000000
1!
1%
1.
18
1C"
1K"
#200000000
0!
0%
0.
08
0C"
0K"
#205000000
1!
1%
1.
18
1C"
1K"
#210000000
0!
0%
0.
08
0C"
0K"
#215000000
1!
1%
1.
18
1C"
1K"
#220000000
0!
0%
0.
08
0C"
0K"
#225000000
1!
1%
1.
18
1C"
1K"
#230000000
0!
0%
0.
08
0C"
0K"
#235000000
1!
1%
1.
18
1C"
1K"
#240000000
0!
0%
0.
08
0C"
0K"
#245000000
1!
1%
1.
18
1C"
1K"
#250000000
0!
0%
0.
08
0C"
0K"
#255000000
1!
1%
1.
18
1C"
1K"
#260000000
0!
0%
0.
08
0C"
0K"
#265000000
1!
1%
1.
18
1C"
1K"
#270000000
0!
0%
0.
08
0C"
0K"
#275000000
1!
1%
1.
18
1C"
1K"
#280000000
0!
0%
0.
08
0C"
0K"
#285000000
1!
1%
1.
18
1C"
1K"
#290000000
0!
0%
0.
08
0C"
0K"
#295000000
1!
1%
1.
18
1C"
1K"
#300000000
0!
0%
0.
08
0C"
0K"
#305000000
1!
1%
1.
18
1C"
1K"
#310000000
0!
0%
0.
08
0C"
0K"
#315000000
1!
1%
1.
18
1C"
1K"
#320000000
0!
0%
0.
08
0C"
0K"
#325000000
1!
1%
1.
18
1C"
1K"
#330000000
0!
0%
0.
08
0C"
0K"
#335000000
1!
1%
1.
18
1C"
1K"
#340000000
0!
0%
0.
08
0C"
0K"
#345000000
1!
1%
1.
18
1C"
1K"
#350000000
0!
0%
0.
08
0C"
0K"
#355000000
1!
1%
1.
18
1C"
1K"
#360000000
0!
0%
0.
08
0C"
0K"
#365000000
1!
1%
1.
18
1C"
1K"
#370000000
0!
0%
0.
08
0C"
0K"
#375000000
1!
1%
1.
18
1C"
1K"
#380000000
0!
0%
0.
08
0C"
0K"
#385000000
1!
1%
1.
18
1C"
1K"
#390000000
0!
0%
0.
08
0C"
0K"
#395000000
1!
1%
1.
18
1C"
1K"
#400000000
0!
0%
0.
08
0C"
0K"
#405000000
1!
1%
1.
18
1C"
1K"
#410000000
0!
0%
0.
08
0C"
0K"
#415000000
1!
1%
1.
18
1C"
1K"
#420000000
0!
0%
0.
08
0C"
0K"
#425000000
1!
1%
1.
18
1C"
1K"
#430000000
0!
0%
0.
08
0C"
0K"
#435000000
1!
1%
1.
18
1C"
1K"
#440000000
0!
0%
0.
08
0C"
0K"
#445000000
1!
1%
1.
18
1C"
1K"
#450000000
0!
0%
0.
08
0C"
0K"
#455000000
1!
1%
1.
18
1C"
1K"
#460000000
0!
0%
0.
08
0C"
0K"
#465000000
1!
1%
1.
18
1C"
1K"
#470000000
0!
0%
0.
08
0C"
0K"
#475000000
1!
1%
1.
18
1C"
1K"
#480000000
0!
0%
0.
08
0C"
0K"
#485000000
1!
1%
1.
18
1C"
1K"
#490000000
0!
0%
0.
08
0C"
0K"
#495000000
1!
1%
1.
18
1C"
1K"
#500000000
0!
0%
0.
08
0C"
0K"
#505000000
1!
1%
1.
18
1C"
1K"
#510000000
0!
0%
0.
08
0C"
0K"
#515000000
1!
1%
1.
18
1C"
1K"
#520000000
0!
0%
0.
08
0C"
0K"
#525000000
1!
1%
1.
18
1C"
1K"
#530000000
0!
0%
0.
08
0C"
0K"
#535000000
1!
1%
1.
18
1C"
1K"
#540000000
0!
0%
0.
08
0C"
0K"
#545000000
1!
1%
1.
18
1C"
1K"
#550000000
0!
0%
0.
08
0C"
0K"
#555000000
1!
1%
1.
18
1C"
1K"
#560000000
0!
0%
0.
08
0C"
0K"
#565000000
1!
1%
1.
18
1C"
1K"
#570000000
0!
0%
0.
08
0C"
0K"
#575000000
1!
1%
1.
18
1C"
1K"
#580000000
0!
0%
0.
08
0C"
0K"
#585000000
1!
1%
1.
18
1C"
1K"
#590000000
0!
0%
0.
08
0C"
0K"
#595000000
1!
1%
1.
18
1C"
1K"
#600000000
0!
0%
0.
08
0C"
0K"
#605000000
1!
1%
1.
18
1C"
1K"
#610000000
0!
0%
0.
08
0C"
0K"
#615000000
1!
1%
1.
18
1C"
1K"
#620000000
0!
0%
0.
08
0C"
0K"
#625000000
1!
1%
1.
18
1C"
1K"
#630000000
0!
0%
0.
08
0C"
0K"
#635000000
1!
1%
1.
18
1C"
1K"
#640000000
0!
0%
0.
08
0C"
0K"
#645000000
1!
1%
1.
18
1C"
1K"
#650000000
0!
0%
0.
08
0C"
0K"
#655000000
1!
1%
1.
18
1C"
1K"
#660000000
0!
0%
0.
08
0C"
0K"
#665000000
1!
1%
1.
18
1C"
1K"
#670000000
0!
0%
0.
08
0C"
0K"
#675000000
1!
1%
1.
18
1C"
1K"
#680000000
0!
0%
0.
08
0C"
0K"
#685000000
1!
1%
1.
18
1C"
1K"
#690000000
0!
0%
0.
08
0C"
0K"
#695000000
1!
1%
1.
18
1C"
1K"
#700000000
0!
0%
0.
08
0C"
0K"
#705000000
1!
1%
1.
18
1C"
1K"
#710000000
0!
0%
0.
08
0C"
0K"
#715000000
1!
1%
1.
18
1C"
1K"
#720000000
0!
0%
0.
08
0C"
0K"
#725000000
1!
1%
1.
18
1C"
1K"
#730000000
0!
0%
0.
08
0C"
0K"
#735000000
1!
1%
1.
18
1C"
1K"
#740000000
0!
0%
0.
08
0C"
0K"
#745000000
1!
1%
1.
18
1C"
1K"
#750000000
0!
0%
0.
08
0C"
0K"
#755000000
1!
1%
1.
18
1C"
1K"
#760000000
0!
0%
0.
08
0C"
0K"
#765000000
1!
1%
1.
18
1C"
1K"
#770000000
0!
0%
0.
08
0C"
0K"
#775000000
1!
1%
1.
18
1C"
1K"
#780000000
0!
0%
0.
08
0C"
0K"
#785000000
1!
1%
1.
18
1C"
1K"
#790000000
0!
0%
0.
08
0C"
0K"
#795000000
1!
1%
1.
18
1C"
1K"
#800000000
0!
0%
0.
08
0C"
0K"
#805000000
1!
1%
1.
18
1C"
1K"
#810000000
0!
0%
0.
08
0C"
0K"
#815000000
1!
1%
1.
18
1C"
1K"
#820000000
0!
0%
0.
08
0C"
0K"
#825000000
1!
1%
1.
18
1C"
1K"
#830000000
0!
0%
0.
08
0C"
0K"
#835000000
1!
1%
1.
18
1C"
1K"
#840000000
0!
0%
0.
08
0C"
0K"
#845000000
1!
1%
1.
18
1C"
1K"
#850000000
0!
0%
0.
08
0C"
0K"
#855000000
1!
1%
1.
18
1C"
1K"
#860000000
0!
0%
0.
08
0C"
0K"
#865000000
1!
1%
1.
18
1C"
1K"
#870000000
0!
0%
0.
08
0C"
0K"
#875000000
1!
1%
1.
18
1C"
1K"
#880000000
0!
0%
0.
08
0C"
0K"
#885000000
1!
1%
1.
18
1C"
1K"
#890000000
0!
0%
0.
08
0C"
0K"
#895000000
1!
1%
1.
18
1C"
1K"
#900000000
0!
0%
0.
08
0C"
0K"
#905000000
1!
1%
1.
18
1C"
1K"
#910000000
0!
0%
0.
08
0C"
0K"
#915000000
1!
1%
1.
18
1C"
1K"
#920000000
0!
0%
0.
08
0C"
0K"
#925000000
1!
1%
1.
18
1C"
1K"
#930000000
0!
0%
0.
08
0C"
0K"
#935000000
1!
1%
1.
18
1C"
1K"
#940000000
0!
0%
0.
08
0C"
0K"
#945000000
1!
1%
1.
18
1C"
1K"
#950000000
0!
0%
0.
08
0C"
0K"
#955000000
1!
1%
1.
18
1C"
1K"
#960000000
0!
0%
0.
08
0C"
0K"
#965000000
1!
1%
1.
18
1C"
1K"
#970000000
0!
0%
0.
08
0C"
0K"
#975000000
1!
1%
1.
18
1C"
1K"
#980000000
0!
0%
0.
08
0C"
0K"
#985000000
1!
1%
1.
18
1C"
1K"
#990000000
0!
0%
0.
08
0C"
0K"
#995000000
1!
1%
1.
18
1C"
1K"
#1000000000
0!
0%
0.
08
0C"
0K"
#1005000000
1!
1%
1.
18
1C"
1K"
#1010000000
0!
0%
0.
08
0C"
0K"
#1015000000
1!
1%
1.
18
1C"
1K"
#1020000000
0!
0%
0.
08
0C"
0K"
#1025000000
1!
1%
1.
18
1C"
1K"
#1030000000
0!
0%
0.
08
0C"
0K"
#1035000000
1!
1%
1.
18
1C"
1K"
#1040000000
0!
0%
0.
08
0C"
0K"
#1045000000
1!
1%
1.
18
1C"
1K"
#1050000000
0!
0%
0.
08
0C"
0K"
#1055000000
1!
1%
1.
18
1C"
1K"
#1060000000
0!
0%
0.
08
0C"
0K"
#1065000000
1!
1%
1.
18
1C"
1K"
#1070000000
0!
0%
0.
08
0C"
0K"
#1075000000
1!
1%
1.
18
1C"
1K"
#1080000000
0!
0%
0.
08
0C"
0K"
#1085000000
1!
1%
1.
18
1C"
1K"
#1090000000
0!
0%
0.
08
0C"
0K"
#1095000000
1!
1%
1.
18
1C"
1K"
#1100000000
0!
0%
0.
08
0C"
0K"
#1105000000
1!
1%
1.
18
1C"
1K"
#1110000000
0!
0%
0.
08
0C"
0K"
#1115000000
1!
1%
1.
18
1C"
1K"
#1120000000
0!
0%
0.
08
0C"
0K"
#1125000000
1!
1%
1.
18
1C"
1K"
#1130000000
0!
0%
0.
08
0C"
0K"
#1135000000
1!
1%
1.
18
1C"
1K"
#1140000000
0!
0%
0.
08
0C"
0K"
#1145000000
1!
1%
1.
18
1C"
1K"
#1150000000
0!
0%
0.
08
0C"
0K"
#1155000000
1!
1%
1.
18
1C"
1K"
#1160000000
0!
0%
0.
08
0C"
0K"
#1165000000
1!
1%
1.
18
1C"
1K"
#1170000000
0!
0%
0.
08
0C"
0K"
