simulation/s_inoutparallel.vcd
$date
  Fri Jun  1 14:31:56 2018
$end
$version
  GHDL v0
$end
$timescale
  1 fs
$end
$var reg 1 ! clk $end
$var reg 1 " detectedbit $end
$var reg 1 # reset $end
$var reg 8 $ bitinput[7:0] $end
$scope module compinout $end
$var reg 1 % clk $end
$var reg 1 & reset $end
$var reg 8 ' bitinput[7:0] $end
$var reg 1 ( detectedbit $end
$var reg 1 ) stringin $end
$var reg 1 * stringout $end
$var reg 1 + interrupcion $end
$scope module compin $end
$var reg 1 , clk $end
$var reg 1 - reset $end
$var reg 8 . bitinput[7:0] $end
$var reg 1 / detectedbit $end
$var reg 1 0 chari $end
$var reg 1 1 charn $end
$var reg 1 2 charspace $end
$var reg 1 3 interrupcion $end
$comment state is not handled $end
$scope module compi $end
$var reg 8 4 charinput[7:0] $end
$var integer 32 5 address $end
$var reg 1 6 iscorrect $end
$var reg 8 7 auxdata[7:0] $end
$scope module rom1 $end
$var integer 32 8 address $end
$var reg 8 9 data[7:0] $end
$upscope $end
$scope module comparador $end
$var reg 8 : charinputa[7:0] $end
$var reg 8 ; charinputb[7:0] $end
$var reg 1 < bitoutput $end
$var reg 1 = a1 $end
$var reg 1 > a2 $end
$var reg 1 ? a3 $end
$var reg 1 @ a4 $end
$var reg 1 A a5 $end
$var reg 1 B a6 $end
$var reg 1 C a7 $end
$var reg 1 D a8 $end
$upscope $end
$upscope $end
$scope module compn $end
$var reg 8 E charinput[7:0] $end
$var integer 32 F address $end
$var reg 1 G iscorrect $end
$var reg 8 H auxdata[7:0] $end
$scope module rom1 $end
$var integer 32 I address $end
$var reg 8 J data[7:0] $end
$upscope $end
$scope module comparador $end
$var reg 8 K charinputa[7:0] $end
$var reg 8 L charinputb[7:0] $end
$var reg 1 M bitoutput $end
$var reg 1 N a1 $end
$var reg 1 O a2 $end
$var reg 1 P a3 $end
$var reg 1 Q a4 $end
$var reg 1 R a5 $end
$var reg 1 S a6 $end
$var reg 1 T a7 $end
$var reg 1 U a8 $end
$upscope $end
$upscope $end
$scope module compspace $end
$var reg 8 V charinput[7:0] $end
$var integer 32 W address $end
$var reg 1 X iscorrect $end
$var reg 8 Y auxdata[7:0] $end
$scope module rom1 $end
$var integer 32 Z address $end
$var reg 8 [ data[7:0] $end
$upscope $end
$scope module comparador $end
$var reg 8 \ charinputa[7:0] $end
$var reg 8 ] charinputb[7:0] $end
$var reg 1 ^ bitoutput $end
$var reg 1 _ a1 $end
$var reg 1 ` a2 $end
$var reg 1 a a3 $end
$var reg 1 b a4 $end
$var reg 1 c a5 $end
$var reg 1 d a6 $end
$var reg 1 e a7 $end
$var reg 1 f a8 $end
$upscope $end
$upscope $end
$upscope $end
$scope module compout $end
$var reg 1 g clk $end
$var reg 1 h reset $end
$var reg 8 i bitinput[7:0] $end
$var reg 1 j detectedbit $end
$var reg 1 k charo $end
$var reg 1 l charu $end
$var reg 1 m chart $end
$var reg 1 n charspace $end
$var reg 1 o interrupcion $end
$comment state is not handled $end
$scope module compo $end
$var reg 8 p charinput[7:0] $end
$var integer 32 q address $end
$var reg 1 r iscorrect $end
$var reg 8 s auxdata[7:0] $end
$scope module rom1 $end
$var integer 32 t address $end
$var reg 8 u data[7:0] $end
$upscope $end
$scope module comparador $end
$var reg 8 v charinputa[7:0] $end
$var reg 8 w charinputb[7:0] $end
$var reg 1 x bitoutput $end
$var reg 1 y a1 $end
$var reg 1 z a2 $end
$var reg 1 { a3 $end
$var reg 1 | a4 $end
$var reg 1 } a5 $end
$var reg 1 !" a6 $end
$var reg 1 "" a7 $end
$var reg 1 #" a8 $end
$upscope $end
$upscope $end
$scope module compu $end
$var reg 8 $" charinput[7:0] $end
$var integer 32 %" address $end
$var reg 1 &" iscorrect $end
$var reg 8 '" auxdata[7:0] $end
$scope module rom1 $end
$var integer 32 (" address $end
$var reg 8 )" data[7:0] $end
$upscope $end
$scope module comparador $end
$var reg 8 *" charinputa[7:0] $end
$var reg 8 +" charinputb[7:0] $end
$var reg 1 ," bitoutput $end
$var reg 1 -" a1 $end
$var reg 1 ." a2 $end
$var reg 1 /" a3 $end
$var reg 1 0" a4 $end
$var reg 1 1" a5 $end
$var reg 1 2" a6 $end
$var reg 1 3" a7 $end
$var reg 1 4" a8 $end
$upscope $end
$upscope $end
$scope module compt $end
$var reg 8 5" charinput[7:0] $end
$var integer 32 6" address $end
$var reg 1 7" iscorrect $end
$var reg 8 8" auxdata[7:0] $end
$scope module rom1 $end
$var integer 32 9" address $end
$var reg 8 :" data[7:0] $end
$upscope $end
$scope module comparador $end
$var reg 8 ;" charinputa[7:0] $end
$var reg 8 <" charinputb[7:0] $end
$var reg 1 =" bitoutput $end
$var reg 1 >" a1 $end
$var reg 1 ?" a2 $end
$var reg 1 @" a3 $end
$var reg 1 A" a4 $end
$var reg 1 B" a5 $end
$var reg 1 C" a6 $end
$var reg 1 D" a7 $end
$var reg 1 E" a8 $end
$upscope $end
$upscope $end
$scope module compspace $end
$var reg 8 F" charinput[7:0] $end
$var integer 32 G" address $end
$var reg 1 H" iscorrect $end
$var reg 8 I" auxdata[7:0] $end
$scope module rom1 $end
$var integer 32 J" address $end
$var reg 8 K" data[7:0] $end
$upscope $end
$scope module comparador $end
$var reg 8 L" charinputa[7:0] $end
$var reg 8 M" charinputb[7:0] $end
$var reg 1 N" bitoutput $end
$var reg 1 O" a1 $end
$var reg 1 P" a2 $end
$var reg 1 Q" a3 $end
$var reg 1 R" a4 $end
$var reg 1 S" a5 $end
$var reg 1 T" a6 $end
$var reg 1 U" a7 $end
$var reg 1 V" a8 $end
$upscope $end
$upscope $end
$upscope $end
$upscope $end
$enddefinitions $end
#0
0!
U"
0#
b01101111 $
0%
0&
b01101111 '
U(
U)
U*
0+
0,
0-
b01101111 .
U/
00
01
02
03
b01101111 4
b1000 5
06
b01101001 7
b1000 8
b01101001 9
b01101111 :
b01101001 ;
0<
1=
0>
0?
1@
1A
1B
1C
1D
b01101111 E
b1101 F
0G
b01101110 H
b1101 I
b01101110 J
b01101111 K
b01101110 L
0M
0N
1O
1P
1Q
1R
1S
1T
1U
b01101111 V
b11010 W
0X
b00100000 Y
b11010 Z
b00100000 [
b01101111 \
b00100000 ]
0^
0_
0`
0a
0b
1c
1d
0e
1f
0g
0h
b01101111 i
Uj
1k
0l
0m
0n
0o
b01101111 p
b1110 q
1r
b01101111 s
b1110 t
b01101111 u
b01101111 v
b01101111 w
1x
1y
1z
1{
1|
1}
1!"
1""
1#"
b01101111 $"
b10100 %"
0&"
b01110101 '"
b10100 ("
b01110101 )"
b01101111 *"
b01110101 +"
0,"
1-"
0."
1/"
00"
01"
12"
13"
14"
b01101111 5"
b10011 6"
07"
b01110100 8"
b10011 9"
b01110100 :"
b01101111 ;"
b01110100 <"
0="
0>"
0?"
1@"
0A"
0B"
1C"
1D"
1E"
b01101111 F"
b11010 G"
0H"
b00100000 I"
b11010 J"
b00100000 K"
b01101111 L"
b00100000 M"
0N"
0O"
0P"
0Q"
0R"
1S"
1T"
0U"
1V"
#5000000
1!
0"
1%
0(
0)
0*
1+
1,
0/
13
1g
0j
#10000000
0!
b01110101 $
0%
b01110101 '
0+
0,
b01110101 .
03
b01110101 4
b01110101 :
1>
0@
0A
b01110101 E
b01110101 K
0O
0Q
0R
b01110101 V
b01110101 \
1`
1b
0c
0g
b01110101 i
0k
1l
b01110101 p
0r
b01110101 v
0x
0z
0|
0}
b01110101 $"
1&"
b01110101 *"
1,"
1."
10"
11"
b01110101 5"
b01110101 ;"
1?"
1A"
1B"
b01110101 F"
b01110101 L"
1P"
1R"
0S"
#15000000
1!
1%
1+
1,
13
1g
#20000000
0!
b01110100 $
0%
b01110100 '
0+
0,
b01110100 .
03
b01110100 4
b01110100 :
0=
b01110100 E
b01110100 K
1N
b01110100 V
b01110100 \
1_
0g
b01110100 i
0l
1m
b01110100 p
b01110100 v
0y
b01110100 $"
0&"
b01110100 *"
0,"
0-"
b01110100 5"
17"
b01110100 ;"
1="
1>"
b01110100 F"
b01110100 L"
1O"
#25000000
1!
1%
1+
1,
13
1g
#30000000
0!
b00100000 $
0%
b00100000 '
0+
0,
b00100000 .
12
03
b00100000 4
b00100000 :
1?
1A
0C
b00100000 E
b00100000 K
0P
1R
0T
b00100000 V
1X
b00100000 \
1^
1a
1c
1e
0g
b00100000 i
0m
1n
b00100000 p
b00100000 v
0{
1}
0""
b00100000 $"
b00100000 *"
0/"
01"
03"
b00100000 5"
07"
b00100000 ;"
0="
0@"
0B"
0D"
b00100000 F"
1H"
b00100000 L"
1N"
1Q"
1S"
1U"
#35000000
1!
1%
1*
1+
1,
13
1g
1j
#40000000
0!
0%
0+
0,
03
0g
#45000000
1!
1"
1%
1(
0*
1,
13
1g
0j
#50000000
0!
0%
0,
03
0g
#55000000
1!
0"
1%
0(
1+
1,
13
1g
#60000000
0!
0%
0+
0,
03
0g
#65000000
1!
1%
1+
1,
13
1g
#70000000
0!
0%
0+
0,
03
0g
#75000000
1!
1%
1+
1,
13
1g
#80000000
0!
0%
0+
0,
03
0g
#85000000
1!
1%
1+
1,
13
1g
#90000000
0!
0%
0+
0,
03
0g
#95000000
1!
1%
1+
1,
13
1g
#100000000
0!
0%
0+
0,
03
0g
#105000000
1!
1%
1+
1,
13
1g
#110000000
0!
0%
0+
0,
03
0g
#115000000
1!
1%
1+
1,
13
1g
#120000000
0!
0%
0+
0,
03
0g
#125000000
1!
1%
1+
1,
13
1g
#130000000
0!
0%
0+
0,
03
0g
#135000000
1!
1%
1+
1,
13
1g
#140000000
0!
0%
0+
0,
03
0g
#145000000
1!
1%
1+
1,
13
1g
#150000000
0!
0%
0+
0,
03
0g
#155000000
1!
1%
1+
1,
13
1g
#160000000
0!
0%
0+
0,
03
0g
#165000000
1!
1%
1+
1,
13
1g
#170000000
0!
0%
0+
0,
03
0g
#175000000
1!
1%
1+
1,
13
1g
#180000000
0!
0%
0+
0,
03
0g
#185000000
1!
1%
1+
1,
13
1g
#190000000
0!
0%
0+
0,
03
0g
#195000000
1!
1%
1+
1,
13
1g
#200000000
0!
0%
0+
0,
03
0g
#205000000
1!
1%
1+
1,
13
1g
#210000000
0!
0%
0+
0,
03
0g
#215000000
1!
1%
1+
1,
13
1g
#220000000
0!
0%
0+
0,
03
0g
#225000000
1!
1%
1+
1,
13
1g
#230000000
0!
0%
0+
0,
03
0g
#235000000
1!
1%
1+
1,
13
1g
#240000000
0!
0%
0+
0,
03
0g
#245000000
1!
1%
1+
1,
13
1g
#250000000
0!
0%
0+
0,
03
0g
#255000000
1!
1%
1+
1,
13
1g
#260000000
0!
0%
0+
0,
03
0g
#265000000
1!
1%
1+
1,
13
1g
#270000000
0!
0%
0+
0,
03
0g
#275000000
1!
1%
1+
1,
13
1g
#280000000
0!
0%
0+
0,
03
0g
#285000000
1!
1%
1+
1,
13
1g
#290000000
0!
0%
0+
0,
03
0g
#295000000
1!
1%
1+
1,
13
1g
#300000000
0!
0%
0+
0,
03
0g
#305000000
1!
1%
1+
1,
13
1g
#310000000
0!
0%
0+
0,
03
0g
#315000000
1!
1%
1+
1,
13
1g
#320000000
0!
0%
0+
0,
03
0g
#325000000
1!
1%
1+
1,
13
1g
#330000000
0!
0%
0+
0,
03
0g
#335000000
1!
1%
1+
1,
13
1g
#340000000
0!
0%
0+
0,
03
0g
#345000000
1!
1%
1+
1,
13
1g
#350000000
0!
0%
0+
0,
03
0g
#355000000
1!
1%
1+
1,
13
1g
#360000000
0!
0%
0+
0,
03
0g
#365000000
1!
1%
1+
1,
13
1g
#370000000
0!
0%
0+
0,
03
0g
#375000000
1!
1%
1+
1,
13
1g
#380000000
0!
0%
0+
0,
03
0g
#385000000
1!
1%
1+
1,
13
1g
#390000000
0!
0%
0+
0,
03
0g
#395000000
1!
1%
1+
1,
13
1g
#400000000
0!
0%
0+
0,
03
0g
#405000000
1!
1%
1+
1,
13
1g
#410000000
0!
0%
0+
0,
03
0g
#415000000
1!
1%
1+
1,
13
1g
#420000000
0!
0%
0+
0,
03
0g
#425000000
1!
1%
1+
1,
13
1g
#430000000
0!
0%
0+
0,
03
0g
#435000000
1!
1%
1+
1,
13
1g
#440000000
0!
0%
0+
0,
03
0g
#445000000
1!
1%
1+
1,
13
1g
#450000000
0!
0%
0+
0,
03
0g
#455000000
1!
1%
1+
1,
13
1g
#460000000
0!
0%
0+
0,
03
0g
#465000000
1!
1%
1+
1,
13
1g
#470000000
0!
0%
0+
0,
03
0g
#475000000
1!
1%
1+
1,
13
1g
#480000000
0!
0%
0+
0,
03
0g
#485000000
1!
1%
1+
1,
13
1g
#490000000
0!
0%
0+
0,
03
0g
#495000000
1!
1%
1+
1,
13
1g
#500000000
0!
0%
0+
0,
03
0g
#505000000
1!
1%
1+
1,
13
1g
#510000000
0!
0%
0+
0,
03
0g
#515000000
1!
1%
1+
1,
13
1g
#520000000
0!
0%
0+
0,
03
0g
#525000000
1!
1%
1+
1,
13
1g
#530000000
0!
0%
0+
0,
03
0g
#535000000
1!
1%
1+
1,
13
1g
#540000000
0!
0%
0+
0,
03
0g
#545000000
1!
1%
1+
1,
13
1g
#550000000
0!
0%
0+
0,
03
0g
#555000000
1!
1%
1+
1,
13
1g
#560000000
0!
0%
0+
0,
03
0g
#565000000
1!
1%
1+
1,
13
1g
#570000000
0!
0%
0+
0,
03
0g
#575000000
1!
1%
1+
1,
13
1g
#580000000
0!
0%
0+
0,
03
0g
#585000000
1!
1%
1+
1,
13
1g
#590000000
0!
0%
0+
0,
03
0g
#595000000
1!
1%
1+
1,
13
1g
#600000000
0!
0%
0+
0,
03
0g
#605000000
1!
1%
1+
1,
13
1g
#610000000
0!
0%
0+
0,
03
0g
#615000000
1!
1%
1+
1,
13
1g
#620000000
0!
0%
0+
0,
03
0g
#625000000
1!
1%
1+
1,
13
1g
#630000000
0!
0%
0+
0,
03
0g
#635000000
1!
1%
1+
1,
13
1g
#640000000
0!
0%
0+
0,
03
0g
#645000000
1!
1%
1+
1,
13
1g
#650000000
0!
0%
0+
0,
03
0g
#655000000
1!
1%
1+
1,
13
1g
#660000000
0!
0%
0+
0,
03
0g
#665000000
1!
1%
1+
1,
13
1g
#670000000
0!
0%
0+
0,
03
0g
#675000000
1!
1%
1+
1,
13
1g
#680000000
0!
0%
0+
0,
03
0g
#685000000
1!
1%
1+
1,
13
1g
#690000000
0!
0%
0+
0,
03
0g
#695000000
1!
1%
1+
1,
13
1g
#700000000
0!
0%
0+
0,
03
0g
#705000000
1!
1%
1+
1,
13
1g
#710000000
0!
0%
0+
0,
03
0g
#715000000
1!
1%
1+
1,
13
1g
#720000000
0!
0%
0+
0,
03
0g
#725000000
1!
1%
1+
1,
13
1g
#730000000
0!
0%
0+
0,
03
0g
#735000000
1!
1%
1+
1,
13
1g
#740000000
0!
0%
0+
0,
03
0g
#745000000
1!
1%
1+
1,
13
1g
#750000000
0!
0%
0+
0,
03
0g
#755000000
1!
1%
1+
1,
13
1g
#760000000
0!
0%
0+
0,
03
0g
#765000000
1!
1%
1+
1,
13
1g
#770000000
0!
0%
0+
0,
03
0g
#775000000
1!
1%
1+
1,
13
1g
#780000000
0!
0%
0+
0,
03
0g
#785000000
1!
1%
1+
1,
13
1g
#790000000
0!
0%
0+
0,
03
0g
#795000000
1!
1%
1+
1,
13
1g
#800000000
0!
0%
0+
0,
03
0g
#805000000
1!
1%
1+
1,
13
1g
#810000000
0!
0%
0+
0,
03
0g
#815000000
1!
1%
1+
1,
13
1g
#820000000
0!
0%
0+
0,
03
0g
#825000000
1!
1%
1+
1,
13
1g
#830000000
0!
0%
0+
0,
03
0g
#835000000
1!
1%
1+
1,
13
1g
#840000000
0!
0%
0+
0,
03
0g
#845000000
1!
1%
1+
1,
13
1g
#850000000
0!
0%
0+
0,
03
0g
#855000000
1!
1%
1+
1,
13
1g
#860000000
0!
0%
0+
0,
03
0g
#865000000
1!
1%
1+
1,
13
1g
#870000000
0!
0%
0+
0,
03
0g
#875000000
1!
1%
1+
1,
13
1g
#880000000
0!
0%
0+
0,
03
0g
#885000000
1!
1%
1+
1,
13
1g
#890000000
0!
0%
0+
0,
03
0g
#895000000
1!
1%
1+
1,
13
1g
#900000000
0!
0%
0+
0,
03
0g
#905000000
1!
1%
1+
1,
13
1g
#910000000
0!
0%
0+
0,
03
0g
#915000000
1!
1%
1+
1,
13
1g
#920000000
0!
0%
0+
0,
03
0g
#925000000
1!
1%
1+
1,
13
1g
#930000000
0!
0%
0+
0,
03
0g
#935000000
1!
1%
1+
1,
13
1g
#940000000
0!
0%
0+
0,
03
0g
#945000000
1!
1%
1+
1,
13
1g
#950000000
0!
0%
0+
0,
03
0g
#955000000
1!
1%
1+
1,
13
1g
#960000000
0!
0%
0+
0,
03
0g
#965000000
1!
1%
1+
1,
13
1g
#970000000
0!
0%
0+
0,
03
0g
#975000000
1!
1%
1+
1,
13
1g
#980000000
0!
0%
0+
0,
03
0g
#985000000
1!
1%
1+
1,
13
1g
#990000000
0!
0%
0+
0,
03
0g
#995000000
1!
1%
1+
1,
13
1g
#1000000000
0!
0%
0+
0,
03
0g
#1005000000
1!
1%
1+
1,
13
1g
#1010000000
0!
0%
0+
0,
03
0g
#1015000000
1!
1%
1+
1,
13
1g
#1020000000
0!
0%
0+
0,
03
0g
#1025000000
1!
1%
1+
1,
13
1g
#1030000000
0!
0%
0+
0,
03
0g
#1035000000
1!
1%
1+
1,
13
1g
#1040000000
0!
0%
0+
0,
03
0g
#1045000000
1!
1%
1+
1,
13
1g
#1050000000
0!
0%
0+
0,
03
0g
#1055000000
1!
1%
1+
1,
13
1g
#1060000000
0!
0%
0+
0,
03
0g
#1065000000
1!
1%
1+
1,
13
1g
#1070000000
0!
0%
0+
0,
03
0g
#1075000000
1!
1%
1+
1,
13
1g
#1080000000
0!
0%
0+
0,
03
0g
#1085000000
1!
1%
1+
1,
13
1g
#1090000000
0!
0%
0+
0,
03
0g
#1095000000
1!
1%
1+
1,
13
1g
#1100000000
0!
0%
0+
0,
03
0g
#1105000000
1!
1%
1+
1,
13
1g
#1110000000
0!
0%
0+
0,
03
0g
#1115000000
1!
1%
1+
1,
13
1g
#1120000000
0!
0%
0+
0,
03
0g
#1125000000
1!
1%
1+
1,
13
1g
#1130000000
0!
0%
0+
0,
03
0g
#1135000000
1!
1%
1+
1,
13
1g
#1140000000
0!
0%
0+
0,
03
0g
#1145000000
1!
1%
1+
1,
13
1g
#1150000000
0!
0%
0+
0,
03
0g
#1155000000
1!
1%
1+
1,
13
1g
#1160000000
0!
0%
0+
0,
03
0g
#1165000000
1!
1%
1+
1,
13
1g
#1170000000
0!
0%
0+
0,
03
0g
#1175000000
1!
1%
1+
1,
13
1g
#1180000000
0!
0%
0+
0,
03
0g
#1185000000
1!
1%
1+
1,
13
1g
#1190000000
0!
0%
0+
0,
03
0g
#1195000000
1!
1%
1+
1,
13
1g
#1200000000
0!
0%
0+
0,
03
0g
#1205000000
1!
1%
1+
1,
13
1g
#1210000000
0!
0%
0+
0,
03
0g
#1215000000
1!
1%
1+
1,
13
1g
#1220000000
0!
0%
0+
0,
03
0g
#1225000000
1!
1%
1+
1,
13
1g
#1230000000
0!
0%
0+
0,
03
0g
#1235000000
1!
1%
1+
1,
13
1g
#1240000000
0!
0%
0+
0,
03
0g
#1245000000
1!
1%
1+
1,
13
1g
#1250000000
0!
0%
0+
0,
03
0g
#1255000000
1!
1%
1+
1,
13
1g
#1260000000
0!
0%
0+
0,
03
0g
#1265000000
1!
1%
1+
1,
13
1g
#1270000000
0!
0%
0+
0,
03
0g
#1275000000
1!
1%
1+
1,
13
1g
#1280000000
0!
0%
0+
0,
03
0g
#1285000000
1!
1%
1+
1,
13
1g
#1290000000
0!
0%
0+
0,
03
0g
#1295000000
1!
1%
1+
1,
13
1g
#1300000000
0!
0%
0+
0,
03
0g
#1305000000
1!
1%
1+
1,
13
1g
#1310000000
0!
0%
0+
0,
03
0g
#1315000000
1!
1%
1+
1,
13
1g
#1320000000
0!
0%
0+
0,
03
0g
#1325000000
1!
1%
1+
1,
13
1g
#1330000000
0!
0%
0+
0,
03
0g
#1335000000
1!
1%
1+
1,
13
1g
#1340000000
0!
0%
0+
0,
03
0g
#1345000000
1!
1%
1+
1,
13
1g
#1350000000
0!
0%
0+
0,
03
0g
#1355000000
1!
1%
1+
1,
13
1g
#1360000000
0!
0%
0+
0,
03
0g
#1365000000
1!
1%
1+
1,
13
1g
#1370000000
0!
0%
0+
0,
03
0g
#1375000000
1!
1%
1+
1,
13
1g
#1380000000
0!
0%
0+
0,
03
0g
#1385000000
1!
1%
1+
1,
13
1g
#1390000000
0!
0%
0+
0,
03
0g
#1395000000
1!
1%
1+
1,
13
1g
#1400000000
0!
0%
0+
0,
03
0g
#1405000000
1!
1%
1+
1,
13
1g
#1410000000
0!
0%
0+
0,
03
0g
#1415000000
1!
1%
1+
1,
13
1g
#1420000000
0!
0%
0+
0,
03
0g
#1425000000
1!
1%
1+
1,
13
1g
#1430000000
0!
0%
0+
0,
03
0g
#1435000000
1!
1%
1+
1,
13
1g
#1440000000
0!
0%
0+
0,
03
0g
#1445000000
1!
1%
1+
1,
13
1g
#1450000000
0!
0%
0+
0,
03
0g
#1455000000
1!
1%
1+
1,
13
1g
#1460000000
0!
0%
0+
0,
03
0g
#1465000000
1!
1%
1+
1,
13
1g
#1470000000
0!
0%
0+
0,
03
0g
#1475000000
1!
1%
1+
1,
13
1g
#1480000000
0!
0%
0+
0,
03
0g
#1485000000
1!
1%
1+
1,
13
1g
#1490000000
0!
0%
0+
0,
03
0g
#1495000000
1!
1%
1+
1,
13
1g
#1500000000
0!
0%
0+
0,
03
0g
#1505000000
1!
1%
1+
1,
13
1g
#1510000000
0!
0%
0+
0,
03
0g
#1515000000
1!
1%
1+
1,
13
1g
#1520000000
0!
0%
0+
0,
03
0g
#1525000000
1!
1%
1+
1,
13
1g
#1530000000
0!
0%
0+
0,
03
0g
#1535000000
1!
1%
1+
1,
13
1g
#1540000000
0!
0%
0+
0,
03
0g
#1545000000
1!
1%
1+
1,
13
1g
#1550000000
0!
0%
0+
0,
03
0g
#1555000000
1!
1%
1+
1,
13
1g
#1560000000
0!
0%
0+
0,
03
0g
#1565000000
1!
1%
1+
1,
13
1g
#1570000000
0!
0%
0+
0,
03
0g
#1575000000
1!
1%
1+
1,
13
1g
#1580000000
0!
0%
0+
0,
03
0g
#1585000000
1!
1%
1+
1,
13
1g
#1590000000
0!
0%
0+
0,
03
0g
#1595000000
1!
1%
1+
1,
13
1g
#1600000000
0!
0%
0+
0,
03
0g
#1605000000
1!
1%
1+
1,
13
1g
#1610000000
0!
0%
0+
0,
03
0g
#1615000000
1!
1%
1+
1,
13
1g
#1620000000
0!
0%
0+
0,
03
0g
#1625000000
1!
1%
1+
1,
13
1g
#1630000000
0!
0%
0+
0,
03
0g
#1635000000
1!
1%
1+
1,
13
1g
#1640000000
0!
0%
0+
0,
03
0g
#1645000000
1!
1%
1+
1,
13
1g
#1650000000
0!
0%
0+
0,
03
0g
#1655000000
1!
1%
1+
1,
13
1g
#1660000000
0!
0%
0+
0,
03
0g
#1665000000
1!
1%
1+
1,
13
1g
#1670000000
0!
0%
0+
0,
03
0g
#1675000000
1!
1%
1+
1,
13
1g
#1680000000
0!
0%
0+
0,
03
0g
#1685000000
1!
1%
1+
1,
13
1g
#1690000000
0!
0%
0+
0,
03
0g
#1695000000
1!
1%
1+
1,
13
1g
#1700000000
0!
0%
0+
0,
03
0g
#1705000000
1!
1%
1+
1,
13
1g
#1710000000
0!
0%
0+
0,
03
0g
#1715000000
1!
1%
1+
1,
13
1g
#1720000000
0!
0%
0+
0,
03
0g
#1725000000
1!
1%
1+
1,
13
1g
#1730000000
0!
0%
0+
0,
03
0g
#1735000000
1!
1%
1+
1,
13
1g
#1740000000
0!
0%
0+
0,
03
0g
#1745000000
1!
1%
1+
1,
13
1g
#1750000000
0!
0%
0+
0,
03
0g
#1755000000
1!
1%
1+
1,
13
1g
#1760000000
0!
0%
0+
0,
03
0g
#1765000000
1!
1%
1+
1,
13
1g
#1770000000
0!
0%
0+
0,
03
0g
#1775000000
1!
1%
1+
1,
13
1g
#1780000000
0!
0%
0+
0,
03
0g
#1785000000
1!
1%
1+
1,
13
1g
#1790000000
0!
0%
0+
0,
03
0g
#1795000000
1!
1%
1+
1,
13
1g
#1800000000
0!
0%
0+
0,
03
0g
#1805000000
1!
1%
1+
1,
13
1g
#1810000000
0!
0%
0+
0,
03
0g
#1815000000
1!
1%
1+
1,
13
1g
#1820000000
0!
0%
0+
0,
03
0g
#1825000000
1!
1%
1+
1,
13
1g
#1830000000
0!
0%
0+
0,
03
0g
#1835000000
1!
1%
1+
1,
13
1g
#1840000000
0!
0%
0+
0,
03
0g
#1845000000
1!
1%
1+
1,
13
1g
#1850000000
0!
0%
0+
0,
03
0g
#1855000000
1!
1%
1+
1,
13
1g
#1860000000
0!
0%
0+
0,
03
0g
#1865000000
1!
1%
1+
1,
13
1g
#1870000000
0!
0%
0+
0,
03
0g
#1875000000
1!
1%
1+
1,
13
1g
#1880000000
0!
0%
0+
0,
03
0g
#1885000000
1!
1%
1+
1,
13
1g
#1890000000
0!
0%
0+
0,
03
0g
#1895000000
1!
1%
1+
1,
13
1g
#1900000000
0!
0%
0+
0,
03
0g
#1905000000
1!
1%
1+
1,
13
1g
#1910000000
0!
0%
0+
0,
03
0g
#1915000000
1!
1%
1+
1,
13
1g
#1920000000
0!
0%
0+
0,
03
0g
#1925000000
1!
1%
1+
1,
13
1g
#1930000000
0!
0%
0+
0,
03
0g
#1935000000
1!
1%
1+
1,
13
1g
#1940000000
0!
0%
0+
0,
03
0g
#1945000000
1!
1%
1+
1,
13
1g
#1950000000
0!
0%
0+
0,
03
0g
#1955000000
1!
1%
1+
1,
13
1g
#1960000000
0!
0%
0+
0,
03
0g
#1965000000
1!
1%
1+
1,
13
1g
#1970000000
0!
0%
0+
0,
03
0g
#1975000000
1!
1%
1+
1,
13
1g
#1980000000
0!
0%
0+
0,
03
0g
#1985000000
1!
1%
1+
1,
13
1g
#1990000000
0!
0%
0+
0,
03
0g
#1995000000
1!
1%
1+
1,
13
1g
#2000000000
0!
0%
0+
0,
03
0g
#2005000000
1!
1%
1+
1,
13
1g
#2010000000
0!
0%
0+
0,
03
0g
#2015000000
1!
1%
1+
1,
13
1g
#2020000000
0!
0%
0+
0,
03
0g
#2025000000
1!
1%
1+
1,
13
1g
#2030000000
0!
0%
0+
0,
03
0g
#2035000000
1!
1%
1+
1,
13
1g
#2040000000
0!
0%
0+
0,
03
0g
#2045000000
1!
1%
1+
1,
13
1g
#2050000000
0!
0%
0+
0,
03
0g
#2055000000
1!
1%
1+
1,
13
1g
#2060000000
0!
0%
0+
0,
03
0g
#2065000000
1!
1%
1+
1,
13
1g
#2070000000
0!
0%
0+
0,
03
0g
#2075000000
1!
1%
1+
1,
13
1g
#2080000000
0!
0%
0+
0,
03
0g
#2085000000
1!
1%
1+
1,
13
1g
#2090000000
0!
0%
0+
0,
03
0g
#2095000000
1!
1%
1+
1,
13
1g
#2100000000
0!
0%
0+
0,
03
0g
#2105000000
1!
1%
1+
1,
13
1g
#2110000000
0!
0%
0+
0,
03
0g
#2115000000
1!
1%
1+
1,
13
1g
#2120000000
0!
0%
0+
0,
03
0g
#2125000000
1!
1%
1+
1,
13
1g
#2130000000
0!
0%
0+
0,
03
0g
#2135000000
1!
1%
1+
1,
13
1g
#2140000000
0!
0%
0+
0,
03
0g
#2145000000
1!
1%
1+
1,
13
1g
#2150000000
0!
0%
0+
0,
03
0g
#2155000000
1!
1%
1+
1,
13
1g
#2160000000
0!
0%
0+
0,
03
0g
#2165000000
1!
1%
1+
1,
13
1g
#2170000000
0!
0%
0+
0,
03
0g
#2175000000
1!
1%
1+
1,
13
1g
#2180000000
0!
0%
0+
0,
03
0g
#2185000000
1!
1%
1+
1,
13
1g
#2190000000
0!
0%
0+
0,
03
0g
#2195000000
1!
1%
1+
1,
13
1g
#2200000000
0!
0%
0+
0,
03
0g
#2205000000
1!
1%
1+
1,
13
1g
#2210000000
0!
0%
0+
0,
03
0g
#2215000000
1!
1%
1+
1,
13
1g
#2220000000
0!
0%
0+
0,
03
0g
#2225000000
1!
1%
1+
1,
13
1g
#2230000000
0!
0%
0+
0,
03
0g
#2235000000
1!
1%
1+
1,
13
1g
#2240000000
0!
0%
0+
0,
03
0g
#2245000000
1!
1%
1+
1,
13
1g
#2250000000
0!
0%
0+
0,
03
0g
#2255000000
1!
1%
1+
1,
13
1g
#2260000000
0!
0%
0+
0,
03
0g
#2265000000
1!
1%
1+
1,
13
1g
#2270000000
0!
0%
0+
0,
03
0g
#2275000000
1!
1%
1+
1,
13
1g
#2280000000
0!
0%
0+
0,
03
0g
#2285000000
1!
1%
1+
1,
13
1g
#2290000000
0!
0%
0+
0,
03
0g
#2295000000
1!
1%
1+
1,
13
1g
#2300000000
0!
0%
0+
0,
03
0g
#2305000000
1!
1%
1+
1,
13
1g
#2310000000
0!
0%
0+
0,
03
0g
#2315000000
1!
1%
1+
1,
13
1g
#2320000000
0!
0%
0+
0,
03
0g
#2325000000
1!
1%
1+
1,
13
1g
#2330000000
0!
0%
0+
0,
03
0g
#2335000000
1!
1%
1+
1,
13
1g
#2340000000
0!
0%
0+
0,
03
0g
#2345000000
1!
1%
1+
1,
13
1g
#2350000000
0!
0%
0+
0,
03
0g
#2355000000
1!
1%
1+
1,
13
1g
#2360000000
0!
0%
0+
0,
03
0g
#2365000000
1!
1%
1+
1,
13
1g
#2370000000
0!
0%
0+
0,
03
0g
#2375000000
1!
1%
1+
1,
13
1g
#2380000000
0!
0%
0+
0,
03
0g
#2385000000
1!
1%
1+
1,
13
1g
