work/s_endDetector.vcd
$date
  Wed Jun 13 19:44:55 2018
$end
$version
  GHDL v0
$end
$timescale
  1 fs
$end
$var reg 1 ! clk $end
$var reg 1 " detectedbit $end
$var reg 1 # reset $end
$var reg 8 $ bitinput[7:0] $end
$var integer 32 % errinic $end
$var integer 32 & numerrores $end
$scope module detector $end
$var reg 1 ' clk $end
$var reg 1 ( reset $end
$var reg 8 ) bitinput[7:0] $end
$var integer 32 * errinic $end
$var reg 1 + detectedbit $end
$var integer 32 , numerrores $end
$comment estado_ini is not handled $end
$comment estado_sig is not handled $end
$var reg 1 - chare $end
$var reg 1 . charn $end
$var reg 1 / chard $end
$var reg 1 0 charspace $end
$var reg 1 1 estadoant $end
$var integer 32 2 err $end
$scope module memcomparee $end
$var reg 8 3 charinput[7:0] $end
$var integer 32 4 address $end
$var reg 1 5 iscorrect $end
$var reg 8 6 auxdata[7:0] $end
$scope module rom1 $end
$var integer 32 7 address $end
$var reg 8 8 data[7:0] $end
$upscope $end
$scope module comparador $end
$var reg 8 9 charinputa[7:0] $end
$var reg 8 : charinputb[7:0] $end
$var reg 1 ; bitoutput $end
$var reg 1 < a1 $end
$var reg 1 = a2 $end
$var reg 1 > a3 $end
$var reg 1 ? a4 $end
$var reg 1 @ a5 $end
$var reg 1 A a6 $end
$var reg 1 B a7 $end
$var reg 1 C a8 $end
$upscope $end
$upscope $end
$scope module memcomparen $end
$var reg 8 D charinput[7:0] $end
$var integer 32 E address $end
$var reg 1 F iscorrect $end
$var reg 8 G auxdata[7:0] $end
$scope module rom1 $end
$var integer 32 H address $end
$var reg 8 I data[7:0] $end
$upscope $end
$scope module comparador $end
$var reg 8 J charinputa[7:0] $end
$var reg 8 K charinputb[7:0] $end
$var reg 1 L bitoutput $end
$var reg 1 M a1 $end
$var reg 1 N a2 $end
$var reg 1 O a3 $end
$var reg 1 P a4 $end
$var reg 1 Q a5 $end
$var reg 1 R a6 $end
$var reg 1 S a7 $end
$var reg 1 T a8 $end
$upscope $end
$upscope $end
$scope module memcompared $end
$var reg 8 U charinput[7:0] $end
$var integer 32 V address $end
$var reg 1 W iscorrect $end
$var reg 8 X auxdata[7:0] $end
$scope module rom1 $end
$var integer 32 Y address $end
$var reg 8 Z data[7:0] $end
$upscope $end
$scope module comparador $end
$var reg 8 [ charinputa[7:0] $end
$var reg 8 \ charinputb[7:0] $end
$var reg 1 ] bitoutput $end
$var reg 1 ^ a1 $end
$var reg 1 _ a2 $end
$var reg 1 ` a3 $end
$var reg 1 a a4 $end
$var reg 1 b a5 $end
$var reg 1 c a6 $end
$var reg 1 d a7 $end
$var reg 1 e a8 $end
$upscope $end
$upscope $end
$scope module memcomparespace $end
$var reg 8 f charinput[7:0] $end
$var integer 32 g address $end
$var reg 1 h iscorrect $end
$var reg 8 i auxdata[7:0] $end
$scope module rom1 $end
$var integer 32 j address $end
$var reg 8 k data[7:0] $end
$upscope $end
$scope module comparador $end
$var reg 8 l charinputa[7:0] $end
$var reg 8 m charinputb[7:0] $end
$var reg 1 n bitoutput $end
$var reg 1 o a1 $end
$var reg 1 p a2 $end
$var reg 1 q a3 $end
$var reg 1 r a4 $end
$var reg 1 s a5 $end
$var reg 1 t a6 $end
$var reg 1 u a7 $end
$var reg 1 v a8 $end
$upscope $end
$upscope $end
$upscope $end
$enddefinitions $end
#0
0!
0"
0#
b01100101 $
b0 %
b0 &
0'
0(
b01100101 )
b0 *
0+
b0 ,
1-
0.
0/
00
01
b0 2
b01100101 3
b100 4
15
b01100101 6
b100 7
b01100101 8
b01100101 9
b01100101 :
1;
1<
1=
1>
1?
1@
1A
1B
1C
b01100101 D
b1101 E
0F
b01101110 G
b1101 H
b01101110 I
b01100101 J
b01101110 K
0L
0M
0N
1O
0P
1Q
1R
1S
1T
b01100101 U
b11 V
0W
b01100100 X
b11 Y
b01100100 Z
b01100101 [
b01100100 \
0]
0^
1_
1`
1a
1b
1c
1d
1e
b01100101 f
b11010 g
0h
b00100000 i
b11010 j
b00100000 k
b01100101 l
b00100000 m
0n
0o
1p
0q
1r
1s
1t
0u
1v
#5000000
1!
1'
#10000000
0!
b01101110 $
0'
b01101110 )
0-
1.
b01101110 3
05
b01101110 9
0;
0<
0=
0?
b01101110 D
1F
b01101110 J
1L
1M
1N
1P
b01101110 U
b01101110 [
1^
0_
0a
b01101110 f
b01101110 l
1o
0p
0r
#15000000
1!
1'
#20000000
0!
b01100100 $
0'
b01100100 )
0.
1/
b01100100 3
b01100100 9
1=
1?
b01100100 D
0F
b01100100 J
0L
0N
0P
b01100100 U
1W
b01100100 [
1]
1_
1a
b01100100 f
b01100100 l
1p
1r
#25000000
1!
1'
#30000000
0!
1"
b00100000 $
0'
b00100000 )
1+
0/
10
11
b00100000 3
b00100000 9
0>
0B
b00100000 D
b00100000 J
0O
0S
b00100000 U
0W
b00100000 [
0]
0`
0d
b00100000 f
1h
b00100000 l
1n
1q
1u
#35000000
1!
1'
#40000000
0!
0"
b01101110 $
0'
b01101110 )
0+
1.
00
01
b01101110 3
b01101110 9
0=
1>
0?
1B
b01101110 D
1F
b01101110 J
1L
1N
1O
1P
1S
b01101110 U
b01101110 [
0_
1`
0a
1d
b01101110 f
0h
b01101110 l
0n
0p
0q
0r
0u
#45000000
1!
1'
#50000000
0!
b01100101 $
0'
b01100101 )
1-
0.
b01100101 3
15
b01100101 9
1;
1<
1=
1?
b01100101 D
0F
b01100101 J
0L
0M
0N
0P
b01100101 U
b01100101 [
0^
1_
1a
b01100101 f
b01100101 l
0o
1p
1r
#55000000
1!
1'
#60000000
0!
b01101110 $
0'
b01101110 )
0-
1.
b01101110 3
05
b01101110 9
0;
0<
0=
0?
b01101110 D
1F
b01101110 J
1L
1M
1N
1P
b01101110 U
b01101110 [
1^
0_
0a
b01101110 f
b01101110 l
1o
0p
0r
#65000000
1!
1'
#70000000
0!
b01100100 $
0'
b01100100 )
0.
1/
b01100100 3
b01100100 9
1=
1?
b01100100 D
0F
b01100100 J
0L
0N
0P
b01100100 U
1W
b01100100 [
1]
1_
1a
b01100100 f
b01100100 l
1p
1r
#75000000
1!
1'
#80000000
0!
b00100000 $
b1 &
0'
b00100000 )
b1 ,
0/
10
b1 2
b00100000 3
b00100000 9
0>
0B
b00100000 D
b00100000 J
0O
0S
b00100000 U
0W
b00100000 [
0]
0`
0d
b00100000 f
1h
b00100000 l
1n
1q
1u
#85000000
1!
1'
#90000000
0!
b01111010 $
0'
b01111010 )
00
b01111010 3
b01111010 9
0=
0?
0@
1B
b01111010 D
b01111010 J
1N
1P
0Q
1S
b01111010 U
b01111010 [
0_
0a
0b
1d
b01111010 f
0h
b01111010 l
0n
0p
0r
0s
0u
#95000000
1!
1'
#100000000
0!
b01101110 $
0'
b01101110 )
1.
b01101110 3
b01101110 9
1>
1@
b01101110 D
1F
b01101110 J
1L
1O
1Q
b01101110 U
b01101110 [
1`
1b
b01101110 f
b01101110 l
0q
1s
#105000000
1!
1'
#110000000
0!
b01100101 $
0'
b01100101 )
1-
0.
b01100101 3
15
b01100101 9
1;
1<
1=
1?
b01100101 D
0F
b01100101 J
0L
0M
0N
0P
b01100101 U
b01100101 [
0^
1_
1a
b01100101 f
b01100101 l
0o
1p
1r
#115000000
1!
1'
#120000000
0!
b01101110 $
0'
b01101110 )
0-
1.
b01101110 3
05
b01101110 9
0;
0<
0=
0?
b01101110 D
1F
b01101110 J
1L
1M
1N
1P
b01101110 U
b01101110 [
1^
0_
0a
b01101110 f
b01101110 l
1o
0p
0r
#125000000
1!
1'
#130000000
0!
b01100100 $
0'
b01100100 )
0.
1/
b01100100 3
b01100100 9
1=
1?
b01100100 D
0F
b01100100 J
0L
0N
0P
b01100100 U
1W
b01100100 [
1]
1_
1a
b01100100 f
b01100100 l
1p
1r
#135000000
1!
1'
#140000000
0!
b00100000 $
b10 &
0'
b00100000 )
b10 ,
0/
10
b10 2
b00100000 3
b00100000 9
0>
0B
b00100000 D
b00100000 J
0O
0S
b00100000 U
0W
b00100000 [
0]
0`
0d
b00100000 f
1h
b00100000 l
1n
1q
1u
#145000000
1!
1'
#150000000
0!
b01100101 $
0'
b01100101 )
1-
00
b01100101 3
15
b01100101 9
1;
1<
1>
1B
b01100101 D
b01100101 J
0M
1O
1S
b01100101 U
b01100101 [
0^
1`
1d
b01100101 f
0h
b01100101 l
0n
0o
0q
0u
#155000000
1!
1'
#160000000
0!
b01101110 $
0'
b01101110 )
0-
1.
b01101110 3
05
b01101110 9
0;
0<
0=
0?
b01101110 D
1F
b01101110 J
1L
1M
1N
1P
b01101110 U
b01101110 [
1^
0_
0a
b01101110 f
b01101110 l
1o
0p
0r
#165000000
1!
1'
#170000000
0!
b01100100 $
0'
b01100100 )
0.
1/
b01100100 3
b01100100 9
1=
1?
b01100100 D
0F
b01100100 J
0L
0N
0P
b01100100 U
1W
b01100100 [
1]
1_
1a
b01100100 f
b01100100 l
1p
1r
#175000000
1!
1'
#180000000
0!
1"
b00100000 $
0'
b00100000 )
1+
0/
10
11
b00100000 3
b00100000 9
0>
0B
b00100000 D
b00100000 J
0O
0S
b00100000 U
0W
b00100000 [
0]
0`
0d
b00100000 f
1h
b00100000 l
1n
1q
1u
